\relax 
\catcode `"\active 
\catcode `-\active 
\babel@aux{czech}{}
\@writefile{toc}{\contentsline {section}{\numberline {1}\IeC {\v Z}ivotn\IeC {\'\i } cyklus projetktu IS}{1}}
\@writefile{toc}{\contentsline {subsection}{\numberline {1.1}Z\IeC {\'a}kladn\IeC {\'\i } pojmy}{1}}
\@writefile{toc}{\contentsline {subsection}{\numberline {1.2}\IeC {\v Z}ivotn\IeC {\'\i } cyklus}{1}}
\@writefile{toc}{\contentsline {subsubsection}{\numberline {1.2.1}Z\IeC {\'a}kladn\IeC {\'\i } etapy}{1}}
\@writefile{toc}{\contentsline {subsection}{\numberline {1.3}Metodiky v\IeC {\'y}voje IS}{2}}
\@writefile{toc}{\contentsline {subsection}{\numberline {1.4}Z\IeC {\'a}kladn\IeC {\'\i } modely \IeC {\v z}ivotn\IeC {\'\i }ho cyklu IS}{2}}
\@writefile{toc}{\contentsline {subsubsection}{\numberline {1.4.1}Model vodop\IeC {\'a}d}{2}}
\@writefile{toc}{\contentsline {subsubsection}{\numberline {1.4.2}V-Shaped model}{2}}
\@writefile{toc}{\contentsline {subsubsection}{\numberline {1.4.3}Prototypov\IeC {\'y} model}{2}}
\@writefile{toc}{\contentsline {subsubsection}{\numberline {1.4.4}Model spir\IeC {\'a}la}{2}}
\@writefile{toc}{\contentsline {subsubsection}{\numberline {1.4.5}Iterativn\IeC {\'\i } v\IeC {\'y}voj}{2}}
\@writefile{toc}{\contentsline {subsubsection}{\numberline {1.4.6}Inkrement\IeC {\'a}ln\IeC {\'\i } v\IeC {\'y}voj}{2}}
\@writefile{toc}{\contentsline {section}{\numberline {2}Zpracov\IeC {\'a}n\IeC {\'\i } u\IeC {\v z}ivatelsk\IeC {\'y}ch po\IeC {\v z}adavk\IeC {\r u}}{2}}
\@writefile{toc}{\contentsline {subsection}{\numberline {2.1}U\IeC {\v z}ivatelsk\IeC {\'y} po\IeC {\v z}adavek}{3}}
\@writefile{toc}{\contentsline {subsubsection}{\numberline {2.1.1}Specifikace po\IeC {\v z}adavku}{3}}
\@writefile{toc}{\contentsline {section}{\numberline {3}Procesy, CMM model \IeC {\'u}rovn\IeC {\v e} procesn\IeC {\'\i }ho \IeC {\v r}\IeC {\'\i }zen\IeC {\'\i }}{3}}
\@writefile{toc}{\contentsline {subsection}{\numberline {3.1}R\IeC {\'a}mcov\IeC {\'y} procesn\IeC {\'\i } model}{5}}
\@writefile{toc}{\contentsline {section}{\numberline {4}Metriky, z\IeC {\'a}kladn\IeC {\'\i } atributy, rozd\IeC {\v e}len\IeC {\'\i }}{5}}
\@writefile{toc}{\contentsline {section}{\numberline {5}Objektov\IeC {\'e} paradigma}{5}}
\@writefile{toc}{\contentsline {section}{\numberline {6}\IeC {\'U}rovn\IeC {\v e} abstrakce a diagramy UML (statick\IeC {\'e} a dynamick\IeC {\'e})}{5}}
\@writefile{toc}{\contentsline {section}{\numberline {7}Use Case Diagram \emph  {(charakteristiky akt\IeC {\'e}rovy a procesn\IeC {\'\i } \IeC {\v s}koly, rozd\IeC {\'\i }l mezi vztahy Include a Extends, vliv uspo\IeC {\v r}\IeC {\'a}d\IeC {\'a}n\IeC {\'\i } Use Case na jejich chronologickou posloupnost p\IeC {\v r}i b\IeC {\v e}hu syst\IeC {\'e}mu)}}{5}}
\@writefile{toc}{\contentsline {section}{\numberline {8}Class Diagram \emph  {(vztah asociace a generalizace, rozd\IeC {\'\i }l mezi agregac\IeC {\'\i } a kompozic\IeC {\'\i }, kdy se v Class diagramu uchylujeme ke generalizaci)}}{5}}
\@writefile{toc}{\contentsline {section}{\numberline {9}Activity Diagram \emph  {(konstruktory, souvislost s Use Case diagramem)}}{5}}
\@writefile{toc}{\contentsline {section}{\numberline {10}Sequence Diagram \emph  {(jak \IeC {\v r}e\IeC {\v s}\IeC {\'\i }me cyklick\IeC {\'e} chov\IeC {\'a}n\IeC {\'\i } procesu, rozd\IeC {\'\i }l mezi synchronn\IeC {\'\i } a asynchronn\IeC {\'\i } zpr\IeC {\'a}vou)}}{5}}
\@writefile{toc}{\contentsline {section}{\numberline {11}Agiln\IeC {\'\i } metodiky (charakteristika) a architektura IS}{5}}
\@writefile{toc}{\contentsline {section}{\numberline {12}SCRUM \emph  {(charakteristika, role, backlog, co mus\IeC {\'\i } b\IeC {\'y}t v\IeC {\'y}sledkem ka\IeC {\v z}d\IeC {\'e}ho sprintu)}}{5}}
