\relax 
\catcode `"\active 
\catcode `-\active 
\babel@aux{czech}{}
\@writefile{toc}{\contentsline {section}{\numberline {1}Mal\IeC {\'e} a st\IeC {\v r}edn\IeC {\'\i } podnik\IeC {\'a}n\IeC {\'\i } - cvi\IeC {\v c}en\IeC {\'\i }}{1}\protected@file@percent }
\@writefile{toc}{\contentsline {section}{\numberline {2}Po\IeC {\v z}adavky}{1}\protected@file@percent }
\@writefile{toc}{\contentsline {section}{\numberline {3}Informa\IeC {\v c}n\IeC {\'\i } zdroje pro podnikovou ekonomiku}{1}\protected@file@percent }
\@writefile{toc}{\contentsline {section}{\numberline {4}Tvorba podnikatelsk\IeC {\'e} vize}{2}\protected@file@percent }
\@writefile{toc}{\contentsline {section}{\numberline {5}Posl\IeC {\'a}n\IeC {\'\i }, vize a c\IeC {\'\i }le podniku}{2}\protected@file@percent }
\@writefile{toc}{\contentsline {subsection}{\numberline {5.1}Posl\IeC {\'a}n\IeC {\'\i }}{2}\protected@file@percent }
\@writefile{toc}{\contentsline {section}{\numberline {6}SchmidtCorp}{2}\protected@file@percent }
\@writefile{toc}{\contentsline {section}{\numberline {7}Strategick\IeC {\'a} anal\IeC {\'y}za - PEST anal\IeC {\'y}za}{2}\protected@file@percent }
