\relax 
\catcode `"\active 
\catcode `-\active 
\babel@aux{czech}{}
\@writefile{toc}{\contentsline {section}{\numberline {1}kapit\IeC {\'a}lov\IeC {\'e} a pen\IeC {\v e}\IeC {\v z}n\IeC {\'\i } trhy}{1}}
\@writefile{toc}{\contentsline {subsection}{\numberline {1.1}finan\IeC {\v c}n\IeC {\'\i } syst\IeC {\'e}m}{1}}
\@writefile{toc}{\contentsline {subsection}{\numberline {1.2}funkce finan\IeC {\v c}n\IeC {\'\i }ho syst\IeC {\'e}mu}{1}}
\@writefile{toc}{\contentsline {subsection}{\numberline {1.3}rizika majitel\IeC {\r u} finan\IeC {\v c}n\IeC {\'\i }ch p\IeC {\v r}ebytk\IeC {\r u}}{1}}
\@writefile{toc}{\contentsline {subsection}{\numberline {1.4}finan\IeC {\v c}n\IeC {\'\i } zprost\IeC {\v r}edkovatel\IeC {\'e} - broke\IeC {\v r}i}{2}}
\@writefile{toc}{\contentsline {subsection}{\numberline {1.5}rozd\IeC {\v e}len\IeC {\'\i } finan\IeC {\v c}n\IeC {\'\i }ch trh\IeC {\r u}}{2}}
\@writefile{toc}{\contentsline {subsection}{\numberline {1.6}likvidita - riziko - v\IeC {\'y}nos: troj\IeC {\'u}heln\IeC {\'\i }k}{2}}
\@writefile{toc}{\contentsline {subsection}{\numberline {1.7}pen\IeC {\v e}\IeC {\v z}n\IeC {\'\i } trhy}{2}}
\@writefile{toc}{\contentsline {subsection}{\numberline {1.8}kapit\IeC {\'a}lov\IeC {\'e} trhy}{2}}
\@writefile{toc}{\contentsline {subsection}{\numberline {1.9}prim\IeC {\'a}rn\IeC {\'\i } kapit\IeC {\'a}lov\IeC {\'e} trhy}{2}}
\@writefile{toc}{\contentsline {subsection}{\numberline {1.10}sekund\IeC {\'a}rn\IeC {\'\i } kapit\IeC {\'a}lov\IeC {\'e} trhy}{3}}
\@writefile{toc}{\contentsline {subsection}{\numberline {1.11}ochodn\IeC {\'\i }k s cenn\IeC {\'y}mi pap\IeC {\'\i }ry}{3}}
\@writefile{toc}{\contentsline {subsection}{\numberline {1.12}subjekty finan\IeC {\v c}n\IeC {\'\i }ho trhu}{3}}
\@writefile{toc}{\contentsline {subsection}{\numberline {1.13}cenn\IeC {\'e} pap\IeC {\'\i }ry a jejich charakteristika}{3}}
\@writefile{toc}{\contentsline {subsubsection}{\numberline {1.13.1}podstata finan\IeC {\v c}n\IeC {\'\i }ch investi\IeC {\v c}n\IeC {\'\i }ch instrument\IeC {\r u}}{3}}
\@writefile{toc}{\contentsline {subsubsection}{\numberline {1.13.2}druhy finan\IeC {\v c}n\IeC {\'\i }ch investi\IeC {\v c}n\IeC {\'\i }ch instrument\IeC {\r u}}{3}}
\@writefile{toc}{\contentsline {subsubsection}{\numberline {1.13.3}cenn\IeC {\'y} pap\IeC {\'\i }r}{4}}
\@writefile{toc}{\contentsline {subsubsection}{\numberline {1.13.4}n\IeC {\'a}stroje pen\IeC {\v e}\IeC {\v z}n\IeC {\'\i }ho trhu - splatnost do jednoho roku}{4}}
\@writefile{toc}{\contentsline {subsubsection}{\numberline {1.13.5}n\IeC {\'a}stroje kapit\IeC {\'a}lov\IeC {\'e}ho trhu - splatnost nad jeden rok}{4}}
\@writefile{toc}{\contentsline {subsection}{\numberline {1.14}majetkov\IeC {\'e} cenn\IeC {\'e} pap\IeC {\'\i }ry}{4}}
\@writefile{toc}{\contentsline {subsection}{\numberline {1.15}vymezen\IeC {\'\i } cenn\IeC {\'e}ho pap\IeC {\'\i }ru v \IeC {\v c}r}{4}}
\@writefile{toc}{\contentsline {subsection}{\numberline {1.16}druhy cenn\IeC {\'y}ch pap\IeC {\'\i }r\IeC {\r u} v \IeC {\v c}r}{5}}
\@writefile{toc}{\contentsline {subsection}{\numberline {1.17}dluhov\IeC {\'e} cenn\IeC {\'e} pap\IeC {\'\i }ry}{5}}
\@writefile{toc}{\contentsline {subsection}{\numberline {1.18}z\IeC {\'a}kladn\IeC {\'\i } druhy cenn\IeC {\'y}ch pap\IeC {\'\i }r\IeC {\r u} v \IeC {\v c}r}{5}}
\@writefile{toc}{\contentsline {subsection}{\numberline {1.19}zastupiteln\IeC {\'e} cenn\IeC {\'e} pap\IeC {\'\i }ry}{5}}
\@writefile{toc}{\contentsline {subsection}{\numberline {1.20}forma cenn\IeC {\'e}ho pap\IeC {\'\i }ru}{5}}
\@writefile{toc}{\contentsline {subsection}{\numberline {1.21}emise cenn\IeC {\'e}ho pap\IeC {\'\i }ru}{6}}
\@writefile{toc}{\contentsline {subsection}{\numberline {1.22}hromadn\IeC {\'a} listina}{6}}
\@writefile{toc}{\contentsline {subsection}{\numberline {1.23}zaknihovan\IeC {\'e} CP}{6}}
\@writefile{toc}{\contentsline {subsection}{\numberline {1.24}CP pen\IeC {\v e}\IeC {\v z}n\IeC {\'\i }ho trhu}{6}}
\@writefile{toc}{\contentsline {subsection}{\numberline {1.25}st\IeC {\'a}tn\IeC {\'\i } pokladni\IeC {\v c}n\IeC {\'\i } pouk\IeC {\'a}zky}{6}}
\@writefile{toc}{\contentsline {subsection}{\numberline {1.26}depozitn\IeC {\'\i } certifik\IeC {\'a}ty}{6}}
\@writefile{toc}{\contentsline {subsection}{\numberline {1.27}komer\IeC {\v c}n\IeC {\'\i } pap\IeC {\'\i }ry}{7}}
\@writefile{toc}{\contentsline {subsection}{\numberline {1.28}dluhopisy}{7}}
\@writefile{toc}{\contentsline {subsubsection}{\numberline {1.28.1}v\IeC {\'y}znam}{7}}
\@writefile{toc}{\contentsline {subsection}{\numberline {1.29}druhy dluhopis\IeC {\r u}}{7}}
\@writefile{toc}{\contentsline {subsubsection}{\numberline {1.29.1}perpetuitn\IeC {\'\i } dluhopisy = konzoly}{7}}
\@writefile{toc}{\contentsline {subsubsection}{\numberline {1.29.2}z\IeC {\'a}kladn\IeC {\'\i } krit\IeC {\'e}ria \IeC {\v c}l\IeC {\v e}n\IeC {\v e}n\IeC {\'\i } dluhopis\IeC {\r u}}{7}}
\@writefile{toc}{\contentsline {subsection}{\numberline {1.30}podle v\IeC {\'y}nos\IeC {\r u} plynouc\IeC {\'\i }ch z jejich dr\IeC {\v z}by}{7}}
\@writefile{toc}{\contentsline {subsubsection}{\numberline {1.30.1}v\IeC {\'y}nosnost dluhopis\IeC {\r u}}{8}}
\@writefile{toc}{\contentsline {subsubsection}{\numberline {1.30.2}pr\IeC {\'a}n\IeC {\'\i } vymezen\IeC {\'\i } dluhopis\IeC {\r u}}{8}}
\@writefile{toc}{\contentsline {subsection}{\numberline {1.31}podle emitenta}{8}}
\@writefile{toc}{\contentsline {subsubsection}{\numberline {1.31.1}st\IeC {\'a}tn\IeC {\'\i } dluhopisy}{8}}
\@writefile{toc}{\contentsline {subsubsection}{\numberline {1.31.2}komun\IeC {\'a}ln\IeC {\'\i } dluhopisy}{8}}
\@writefile{toc}{\contentsline {subsubsection}{\numberline {1.31.3}hypote\IeC {\v c}n\IeC {\'\i } z\IeC {\'a}stavn\IeC {\'e} listy}{8}}
\@writefile{toc}{\contentsline {subsubsection}{\numberline {1.31.4}rating dluhopis\IeC {\r u}}{9}}
\@writefile{toc}{\contentsline {subsubsection}{\numberline {1.31.5}\IeC {\v c}len\IeC {\v e}n\IeC {\'\i } dluhopis\IeC {\r u} podle zaji\IeC {\v s}t\IeC {\v e}n\IeC {\'\i }}{9}}
\@writefile{toc}{\contentsline {subsubsection}{\numberline {1.31.6}\IeC {\v c}len\IeC {\v e}n\IeC {\'\i } dluhopis\IeC {\r u} podle zem\IeC {\v e} p\IeC {\r u}vodu}{9}}
\@writefile{toc}{\contentsline {subsection}{\numberline {1.32}akcie}{9}}
\@writefile{toc}{\contentsline {subsubsection}{\numberline {1.32.1}kmenov\IeC {\'e} akcie}{9}}
\@writefile{toc}{\contentsline {subsubsection}{\numberline {1.32.2}prioritn\IeC {\'\i } akcie}{10}}
\@writefile{toc}{\contentsline {subsubsection}{\numberline {1.32.3}pr\IeC {\'a}vn\IeC {\'\i } \IeC {\'u}prava akcie}{10}}
\@writefile{toc}{\contentsline {subsubsection}{\numberline {1.32.4}n\IeC {\'a}le\IeC {\v z}itosti akci\IeC {\'\i }}{10}}
\@writefile{toc}{\contentsline {subsubsection}{\numberline {1.32.5}kusov\IeC {\'e} akcie}{10}}
\@writefile{toc}{\contentsline {subsubsection}{\numberline {1.32.6}forma akcie}{11}}
\@writefile{toc}{\contentsline {subsection}{\numberline {1.33}Rizika spojen\IeC {\'a} s dr\IeC {\v z}bou akci\IeC {\'\i }}{11}}
\@writefile{toc}{\contentsline {subsection}{\numberline {1.34}investov\IeC {\'a}n\IeC {\'\i } do akci\IeC {\'\i }}{11}}
\@writefile{toc}{\contentsline {subsubsection}{\numberline {1.34.1}b\IeC {\v e}\IeC {\v z}n\IeC {\'a} v\IeC {\'y}nosnost akcie}{11}}
\@writefile{toc}{\contentsline {subsubsection}{\numberline {1.34.2}kapit\IeC {\'a}lov\IeC {\'a} v\IeC {\'y}nosnost akcie}{11}}
\@writefile{toc}{\contentsline {subsection}{\numberline {1.35}finan\IeC {\v c}n\IeC {\'\i } investov\IeC {\'a}n\IeC {\'\i }}{11}}
\@writefile{toc}{\contentsline {subsubsection}{\numberline {1.35.1}obsah p\IeC {\v r}edn\IeC {\'a}\IeC {\v s}ky}{11}}
\@writefile{toc}{\contentsline {subsection}{\numberline {1.36}re\IeC {\'a}ln\IeC {\'a} a finan\IeC {\v c}n\IeC {\'\i } aktiva}{12}}
\@writefile{toc}{\contentsline {subsection}{\numberline {1.37}investice}{12}}
\@writefile{toc}{\contentsline {subsection}{\numberline {1.38}spekulace}{12}}
\@writefile{toc}{\contentsline {subsection}{\numberline {1.39}investi\IeC {\v c}n\IeC {\'\i } proces}{12}}
\@writefile{toc}{\contentsline {subsubsection}{\numberline {1.39.1}v\IeC {\'y}nos}{13}}
\@writefile{toc}{\contentsline {subsubsection}{\numberline {1.39.2}riziko a kvantifikace rizika}{13}}
\@writefile{toc}{\contentsline {subsubsection}{\numberline {1.39.3}likvidita}{13}}
\@writefile{toc}{\contentsline {subsubsection}{\numberline {1.39.4}pyramida investi\IeC {\v c}n\IeC {\'\i }ho rizika}{13}}
\@writefile{toc}{\contentsline {subsubsection}{\numberline {1.39.5}investi\IeC {\v c}n\IeC {\'\i } proces}{13}}
\@writefile{toc}{\contentsline {subsubsection}{\numberline {1.39.6}1. volba strategie}{13}}
\@writefile{toc}{\contentsline {subsubsection}{\numberline {1.39.7}1. anal\IeC {\'y}za dokument\IeC {\r u} finan\IeC {\v c}n\IeC {\'\i }ch trh\IeC {\r u}}{14}}
\@writefile{toc}{\contentsline {subsubsection}{\numberline {1.39.8}3. sestaven\IeC {\'\i } portfolia}{14}}
\@writefile{toc}{\contentsline {subsubsection}{\numberline {1.39.9}4. revize a hodnocen\IeC {\'\i } v\IeC {\'y}konnosti portfolia}{14}}
\@writefile{toc}{\contentsline {subsubsection}{\numberline {1.39.10}akciov\IeC {\'y} trh - d\IeC {\r u}vody k opatrnosti}{14}}
\@writefile{toc}{\contentsline {subsection}{\numberline {1.40}nov\IeC {\'e} trendy na sv\IeC {\v e}tov\IeC {\'y}ch finan\IeC {\v c}n\IeC {\'\i }ch trz\IeC {\'\i }ch}{14}}
\@writefile{toc}{\contentsline {subsection}{\numberline {1.41}\IeC {\v c}esk\IeC {\'y} kapit\IeC {\'a}lov\IeC {\'y} trh}{15}}
\@writefile{toc}{\contentsline {subsection}{\numberline {1.42}definice burzy}{15}}
\@writefile{toc}{\contentsline {subsection}{\numberline {1.43}burza cenn\IeC {\'y}m pap\IeC {\'\i }r\IeC {\r u}}{16}}
\@writefile{toc}{\contentsline {subsection}{\numberline {1.44}historie burzovnictv\IeC {\'\i }}{16}}
\@writefile{toc}{\contentsline {subsection}{\numberline {1.45}propojov\IeC {\'a}n\IeC {\'\i } burz}{16}}
\@writefile{toc}{\contentsline {subsection}{\numberline {1.46}Burza CP Praha}{17}}
\@writefile{toc}{\contentsline {subsubsection}{\numberline {1.46.1}Organiza\IeC {\v c}n\IeC {\'\i } struktura}{17}}
\@writefile{toc}{\contentsline {subsubsection}{\numberline {1.46.2}Trhy na BCPP - Prime market}{17}}
\@writefile{toc}{\contentsline {subsubsection}{\numberline {1.46.3}Indexy}{17}}
\@writefile{toc}{\contentsline {subsubsection}{\numberline {1.46.4}Nejstar\IeC {\v s}\IeC {\'\i } indexy}{18}}
\@writefile{toc}{\contentsline {subsubsection}{\numberline {1.46.5}Burzovn\IeC {\'\i } indexy na BCPP}{18}}
\@writefile{toc}{\contentsline {subsubsection}{\numberline {1.46.6}Burzovn\IeC {\'\i } informace}{18}}
\@writefile{toc}{\contentsline {subsubsection}{\numberline {1.46.7}obchodov\IeC {\'a}n\IeC {\'\i } na BCPP}{18}}
\@writefile{toc}{\contentsline {subsubsection}{\numberline {1.46.8}RM - Syst\IeC {\'e}m}{18}}
\@writefile{toc}{\contentsline {subsubsection}{\numberline {1.46.9}St\IeC {\v r}edisko cenn\IeC {\'y}ch pap\IeC {\'\i }r\IeC {\r u} (SCP)}{19}}
\@writefile{toc}{\contentsline {subsubsection}{\numberline {1.46.10}Centr\IeC {\'a}ln\IeC {\'\i } Depozit\IeC {\'a}\IeC {\v r} Cenn\IeC {\'y}ch Pap\IeC {\'\i }r\IeC {\r u} (CDCP)}{19}}
\@writefile{toc}{\contentsline {section}{\numberline {2}Bankovnictv\IeC {\'\i }}{19}}
\@writefile{toc}{\contentsline {subsection}{\numberline {2.1}Historie}{19}}
\@writefile{toc}{\contentsline {subsection}{\numberline {2.2}Charakteristika bankovn\IeC {\'\i }ho syst\IeC {\'e}mu}{19}}
\@writefile{toc}{\contentsline {subsection}{\numberline {2.3}\IeC {\v C}len\IeC {\v e}n\IeC {\'\i } dle funk\IeC {\v c}n\IeC {\'\i } slo\IeC {\v z}ky}{19}}
\@writefile{toc}{\contentsline {subsection}{\numberline {2.4}\IeC {\v C}len\IeC {\v e}n\IeC {\'\i } dle institucion\IeC {\'a}ln\IeC {\'\i } slo\IeC {\v z}ky}{19}}
\@writefile{toc}{\contentsline {subsection}{\numberline {2.5}D\IeC {\v e}len\IeC {\'\i } bankovn\IeC {\'\i }ho syst\IeC {\'e}mu}{20}}
\@writefile{toc}{\contentsline {subsubsection}{\numberline {2.5.1}Univerz\IeC {\'a}ln\IeC {\'\i } bankovn\IeC {\'\i } syst\IeC {\'e}m}{20}}
\@writefile{toc}{\contentsline {subsection}{\numberline {2.6}Aktu\IeC {\'a}ln\IeC {\'\i } probl\IeC {\'e}my a rizika bankovnictv\IeC {\'\i }}{20}}
\@writefile{toc}{\contentsline {subsection}{\numberline {2.7}Nov\IeC {\'e} trendy bankovnictv\IeC {\'\i }}{20}}
\@writefile{toc}{\contentsline {subsection}{\numberline {2.8}Z\IeC {\'a}kladn\IeC {\'\i } funkce bank}{20}}
\@writefile{toc}{\contentsline {subsection}{\numberline {2.9}Bankovn\IeC {\'\i } licence a krit\IeC {\'e}ria autorizace}{21}}
\@writefile{toc}{\contentsline {subsection}{\numberline {2.10}Postaven\IeC {\'\i } centr\IeC {\'a}ln\IeC {\'\i }ch bank v ekonomice}{21}}
\@writefile{toc}{\contentsline {subsection}{\numberline {2.11}D\IeC {\r u}vody vzniku centr\IeC {\'a}ln\IeC {\'\i }ch bank}{21}}
\@writefile{toc}{\contentsline {subsection}{\numberline {2.12}Vlastnosti centr\IeC {\'a}ln\IeC {\'\i } banky}{21}}
\@writefile{toc}{\contentsline {subsection}{\numberline {2.13}Zp\IeC {\r u}soby zakl\IeC {\'a}d\IeC {\'a}n\IeC {\'\i } centr\IeC {\'a}ln\IeC {\'\i }ch bank}{22}}
\@writefile{toc}{\contentsline {subsection}{\numberline {2.14}Hlavn\IeC {\'\i } rozd\IeC {\'\i }ly mezi centr\IeC {\'a}ln\IeC {\'\i }mi bankami}{22}}
\@writefile{toc}{\contentsline {subsection}{\numberline {2.15}V\IeC {\'y}znamn\IeC {\'e} finan\IeC {\v c}n\IeC {\'\i } instituce}{22}}
\@writefile{toc}{\contentsline {section}{\numberline {3}Poji\IeC {\v s}\IeC {\v t}ovnictv\IeC {\'\i }}{22}}
\@writefile{toc}{\contentsline {subsection}{\numberline {3.1}Poji\IeC {\v s}t\IeC {\v e}n\IeC {\'\i }}{23}}
\@writefile{toc}{\contentsline {subsection}{\numberline {3.2}Likvidace pojistn\IeC {\'e} ud\IeC {\'a}losti}{23}}
\@writefile{toc}{\contentsline {subsection}{\numberline {3.3}Pojistn\IeC {\'e} pln\IeC {\v e}n\IeC {\'\i }}{23}}
\@writefile{toc}{\contentsline {subsection}{\numberline {3.4}Poji\IeC {\v s}t\IeC {\v e}n\IeC {\'y}}{23}}
\@writefile{toc}{\contentsline {subsection}{\numberline {3.5}Zaji\IeC {\v s}\IeC {\v t}ovna}{23}}
