\relax 
\catcode `"\active 
\catcode `-\active 
\babel@aux{czech}{}
\@writefile{toc}{\contentsline {section}{\numberline {1}Struktura semin\IeC {\'a}rn\IeC {\'\i } pr\IeC {\'a}ce}{1}\protected@file@percent }
\@writefile{toc}{\contentsline {section}{\numberline {2}Pot\IeC {\v r}eba}{1}\protected@file@percent }
\@writefile{toc}{\contentsline {section}{\numberline {3}Tr\IeC {\v z}n\IeC {\'\i } cyklus}{1}\protected@file@percent }
