\relax 
\catcode `"\active 
\catcode `-\active 
\babel@aux{czech}{}
\@writefile{toc}{\contentsline {section}{\numberline {1}Podm\IeC {\'\i }nky ukon\IeC {\v c}en\IeC {\'\i } p\IeC {\v r}edm\IeC {\v e}tu}{1}}
\@writefile{toc}{\contentsline {subsection}{\numberline {1.1}Z\IeC {\'a}po\IeC {\v c}et}{1}}
\@writefile{toc}{\contentsline {subsection}{\numberline {1.2}Zkou\IeC {\v s}ka}{1}}
\@writefile{toc}{\contentsline {section}{\numberline {2}Management - \IeC {\'u}vod}{1}}
\@writefile{toc}{\contentsline {subsection}{\numberline {2.1}\IeC {\v C}innosti odpov\IeC {\v e}dn\IeC {\'e} osoby}{1}}
\@writefile{toc}{\contentsline {subsubsection}{\numberline {2.1.1}\IeC {\'u}kol}{1}}
\@writefile{toc}{\contentsline {section}{\numberline {3}Hlavn\IeC {\'\i } \IeC {\'u}koly mana\IeC {\v z}era}{2}}
\@writefile{toc}{\contentsline {section}{\numberline {4}Mana\IeC {\v z}ersk\IeC {\'e}}{2}}
\@writefile{toc}{\contentsline {section}{\numberline {5}Vlastnosti mana\IeC {\v z}era}{2}}
\@writefile{toc}{\contentsline {subsubsection}{\numberline {5.0.1}kv\IeC {\'\i }z}{2}}
