\relax 
\catcode `"\active 
\catcode `-\active 
\babel@aux{czech}{}
\@writefile{toc}{\contentsline {section}{\numberline {1}\IeC {\'U}vod}{1}\protected@file@percent }
\@writefile{toc}{\contentsline {subsection}{\numberline {1.1}Z\IeC {\'a}pis do obchodn\IeC {\'\i }ho rejst\IeC {\v r}\IeC {\'\i }ku}{1}\protected@file@percent }
\@writefile{toc}{\contentsline {subsection}{\numberline {1.2}Registrace na finan\IeC {\v c}n\IeC {\'\i }m \IeC {\'u}\IeC {\v r}adu}{2}\protected@file@percent }
\@writefile{toc}{\contentsline {subsection}{\numberline {1.3}Vytvo\IeC {\v r}en\IeC {\'\i } seznamu spole\IeC {\v c}n\IeC {\'\i }k\IeC {\r u}}{2}\protected@file@percent }
\@writefile{toc}{\contentsline {subsection}{\numberline {1.4}Kde hledat materi\IeC {\'a}ly pro pr\IeC {\'a}ce}{2}\protected@file@percent }
