\relax 
\catcode `"\active 
\catcode `-\active 
\select@language{czech}
\@writefile{toc}{\select@language{czech}}
\@writefile{lof}{\select@language{czech}}
\@writefile{lot}{\select@language{czech}}
\@writefile{toc}{\contentsline {section}{\numberline {1}Agenda}{1}}
\@writefile{toc}{\contentsline {section}{\numberline {2}Disclaimer}{1}}
\@writefile{toc}{\contentsline {section}{\numberline {3}Job interviews}{1}}
\@writefile{toc}{\contentsline {subsection}{\numberline {3.1}Intro}{1}}
\@writefile{toc}{\contentsline {subsection}{\numberline {3.2}How should one prepare?}{2}}
\@writefile{toc}{\contentsline {subsection}{\numberline {3.3}What questions to expect?}{2}}
\@writefile{toc}{\contentsline {section}{\numberline {4}CV}{2}}
\@writefile{toc}{\contentsline {subsection}{\numberline {4.1}Definition}{2}}
\@writefile{toc}{\contentsline {subsection}{\numberline {4.2}Core atributes}{2}}
\@writefile{toc}{\contentsline {subsection}{\numberline {4.3}Styles}{2}}
\@writefile{toc}{\contentsline {section}{\numberline {5}Summary and references}{3}}
