\relax 
\providecommand\hyper@newdestlabel[2]{}
\providecommand\HyperFirstAtBeginDocument{\AtBeginDocument}
\HyperFirstAtBeginDocument{\ifx\hyper@anchor\@undefined
\global\let\oldcontentsline\contentsline
\gdef\contentsline#1#2#3#4{\oldcontentsline{#1}{#2}{#3}}
\global\let\oldnewlabel\newlabel
\gdef\newlabel#1#2{\newlabelxx{#1}#2}
\gdef\newlabelxx#1#2#3#4#5#6{\oldnewlabel{#1}{{#2}{#3}}}
\AtEndDocument{\ifx\hyper@anchor\@undefined
\let\contentsline\oldcontentsline
\let\newlabel\oldnewlabel
\fi}
\fi}
\global\let\hyper@last\relax 
\gdef\HyperFirstAtBeginDocument#1{#1}
\providecommand\HyField@AuxAddToFields[1]{}
\providecommand\HyField@AuxAddToCoFields[2]{}
\abx@aux@sortscheme{nty}
\abx@aux@refcontext{nty/global/}
\@writefile{toc}{\boolfalse {citerequest}\boolfalse {citetracker}\boolfalse {pagetracker}\boolfalse {backtracker}\relax }
\@writefile{lof}{\boolfalse {citerequest}\boolfalse {citetracker}\boolfalse {pagetracker}\boolfalse {backtracker}\relax }
\@writefile{lot}{\boolfalse {citerequest}\boolfalse {citetracker}\boolfalse {pagetracker}\boolfalse {backtracker}\relax }
\@writefile{toc}{\defcounter {refsection}{0}\relax }\@writefile{toc}{\beamer@endinputifotherversion {3.36pt}}
\@writefile{nav}{\defcounter {refsection}{0}\relax }\@writefile{nav}{\beamer@endinputifotherversion {3.36pt}}
\@writefile{nav}{\defcounter {refsection}{0}\relax }\@writefile{nav}{\headcommand {\slideentry {0}{0}{1}{1/1}{}{0}}}
\@writefile{nav}{\defcounter {refsection}{0}\relax }\@writefile{nav}{\headcommand {\beamer@framepages {1}{1}}}
\@writefile{nav}{\defcounter {refsection}{0}\relax }\@writefile{nav}{\headcommand {\slideentry {0}{0}{2}{2/2}{}{0}}}
\@writefile{nav}{\defcounter {refsection}{0}\relax }\@writefile{nav}{\headcommand {\beamer@framepages {2}{2}}}
\@writefile{nav}{\defcounter {refsection}{0}\relax }\@writefile{nav}{\headcommand {\slideentry {0}{0}{3}{3/3}{}{0}}}
\@writefile{nav}{\defcounter {refsection}{0}\relax }\@writefile{nav}{\headcommand {\beamer@framepages {3}{3}}}
\abx@aux@cite{webster}
\abx@aux@segm{0}{0}{webster}
\abx@aux@segm{0}{0}{webster}
\abx@aux@segm{0}{0}{webster}
\abx@aux@segm{0}{0}{webster}
\abx@aux@segm{0}{0}{webster}
\abx@aux@segm{0}{0}{webster}
\@writefile{nav}{\defcounter {refsection}{0}\relax }\@writefile{nav}{\headcommand {\slideentry {0}{0}{4}{4/6}{}{0}}}
\@writefile{nav}{\defcounter {refsection}{0}\relax }\@writefile{nav}{\headcommand {\beamer@framepages {4}{6}}}
\@writefile{nav}{\defcounter {refsection}{0}\relax }\@writefile{nav}{\headcommand {\slideentry {0}{0}{5}{7/9}{}{0}}}
\@writefile{nav}{\defcounter {refsection}{0}\relax }\@writefile{nav}{\headcommand {\beamer@framepages {7}{9}}}
\@writefile{nav}{\defcounter {refsection}{0}\relax }\@writefile{nav}{\headcommand {\slideentry {0}{0}{6}{10/13}{}{0}}}
\@writefile{nav}{\defcounter {refsection}{0}\relax }\@writefile{nav}{\headcommand {\beamer@framepages {10}{13}}}
\abx@aux@segm{0}{0}{webster}
\abx@aux@segm{0}{0}{webster}
\abx@aux@segm{0}{0}{webster}
\abx@aux@segm{0}{0}{webster}
\@writefile{nav}{\defcounter {refsection}{0}\relax }\@writefile{nav}{\headcommand {\slideentry {0}{0}{7}{14/15}{}{0}}}
\@writefile{nav}{\defcounter {refsection}{0}\relax }\@writefile{nav}{\headcommand {\beamer@framepages {14}{15}}}
\@writefile{nav}{\defcounter {refsection}{0}\relax }\@writefile{nav}{\headcommand {\slideentry {0}{0}{8}{16/18}{}{0}}}
\@writefile{nav}{\defcounter {refsection}{0}\relax }\@writefile{nav}{\headcommand {\beamer@framepages {16}{18}}}
\abx@aux@cite{thebalancecareers.com}
\abx@aux@segm{0}{0}{thebalancecareers.com}
\abx@aux@segm{0}{0}{thebalancecareers.com}
\abx@aux@segm{0}{0}{thebalancecareers.com}
\abx@aux@segm{0}{0}{thebalancecareers.com}
\abx@aux@segm{0}{0}{thebalancecareers.com}
\abx@aux@segm{0}{0}{thebalancecareers.com}
\abx@aux@segm{0}{0}{thebalancecareers.com}
\abx@aux@segm{0}{0}{thebalancecareers.com}
\abx@aux@segm{0}{0}{thebalancecareers.com}
\abx@aux@segm{0}{0}{thebalancecareers.com}
\abx@aux@segm{0}{0}{thebalancecareers.com}
\abx@aux@segm{0}{0}{thebalancecareers.com}
\abx@aux@segm{0}{0}{thebalancecareers.com}
\abx@aux@segm{0}{0}{thebalancecareers.com}
\abx@aux@segm{0}{0}{thebalancecareers.com}
\abx@aux@segm{0}{0}{thebalancecareers.com}
\abx@aux@segm{0}{0}{thebalancecareers.com}
\abx@aux@segm{0}{0}{thebalancecareers.com}
\abx@aux@segm{0}{0}{thebalancecareers.com}
\abx@aux@segm{0}{0}{thebalancecareers.com}
\@writefile{nav}{\defcounter {refsection}{0}\relax }\@writefile{nav}{\headcommand {\slideentry {0}{0}{9}{19/28}{}{0}}}
\@writefile{nav}{\defcounter {refsection}{0}\relax }\@writefile{nav}{\headcommand {\beamer@framepages {19}{28}}}
\@writefile{nav}{\defcounter {refsection}{0}\relax }\@writefile{nav}{\headcommand {\sectionentry {1}{References}{29}{References}{0}}}
\@writefile{nav}{\defcounter {refsection}{0}\relax }\@writefile{nav}{\headcommand {\beamer@sectionpages {1}{28}}}
\@writefile{nav}{\defcounter {refsection}{0}\relax }\@writefile{nav}{\headcommand {\beamer@subsectionpages {1}{28}}}
\@writefile{nav}{\defcounter {refsection}{0}\relax }\@writefile{nav}{\headcommand {\slideentry {1}{0}{0}{29/29}{}{0}}}
\@writefile{nav}{\defcounter {refsection}{0}\relax }\@writefile{nav}{\headcommand {\beamer@framepages {29}{29}}}
\@writefile{nav}{\headcommand {\beamer@partpages {1}{29}}}
\@writefile{nav}{\headcommand {\beamer@subsectionpages {1}{29}}}
\@writefile{nav}{\headcommand {\beamer@sectionpages {1}{29}}}
\@writefile{nav}{\headcommand {\beamer@documentpages {29}}}
\@writefile{nav}{\headcommand {\def \inserttotalframenumber {10}}}
\abx@aux@refcontextdefaultsdone
\abx@aux@defaultrefcontext{0}{webster}{nty/global/}
\abx@aux@defaultrefcontext{0}{thebalancecareers.com}{nty/global/}
