\relax 
\catcode `"\active 
\catcode `-\active 
\babel@aux{czech}{}
\@writefile{toc}{\contentsline {section}{\numberline {1}\IeC {\'U}vod do marketingu}{1}\protected@file@percent }
\@writefile{toc}{\contentsline {subsection}{\numberline {1.1}Funkce marketingu}{1}\protected@file@percent }
\@writefile{toc}{\contentsline {subsection}{\numberline {1.2}Prov\IeC {\'a}z\IeC {\'a}n\IeC {\'\i } s ostatn\IeC {\'\i }mi discipl\IeC {\'\i }nami}{1}\protected@file@percent }
\@writefile{toc}{\contentsline {subsection}{\numberline {1.3}Trendy v marketingu}{2}\protected@file@percent }
\@writefile{toc}{\contentsline {subsection}{\numberline {1.4}Elementy marketingu}{2}\protected@file@percent }
\@writefile{toc}{\contentsline {subsubsection}{\numberline {1.4.1}Obecn\IeC {\'e} pot\IeC {\v r}eby (needs)}{2}\protected@file@percent }
\@writefile{toc}{\contentsline {subsubsection}{\numberline {1.4.2}Konkr\IeC {\'e}tn\IeC {\'\i } pot\IeC {\v r}eby (wants)}{3}\protected@file@percent }
\@writefile{toc}{\contentsline {subsubsection}{\numberline {1.4.3}Popt\IeC {\'a}vka}{3}\protected@file@percent }
\@writefile{toc}{\contentsline {subsubsection}{\numberline {1.4.4}V\IeC {\'y}robek (nab\IeC {\'\i }dka)}{3}\protected@file@percent }
\@writefile{toc}{\contentsline {subsubsection}{\numberline {1.4.5}Sm\IeC {\v e}na}{4}\protected@file@percent }
\@writefile{toc}{\contentsline {subsubsection}{\numberline {1.4.6}Transakce - pen\IeC {\v e}\IeC {\v z}n\IeC {\'\i } vyj\IeC {\'a}d\IeC {\v r}en\IeC {\'\i } ceny}{4}\protected@file@percent }
\@writefile{toc}{\contentsline {subsubsection}{\numberline {1.4.7}Trh}{4}\protected@file@percent }
\@writefile{toc}{\contentsline {subsection}{\numberline {1.5}Konkuren\IeC {\v c}n\IeC {\'\i } (podnikatelsk\IeC {\'e}) koncepce}{4}\protected@file@percent }
\@writefile{toc}{\contentsline {subsubsection}{\numberline {1.5.1}V\IeC {\'y}robn\IeC {\'\i } koncepce}{4}\protected@file@percent }
\@writefile{toc}{\contentsline {subsubsection}{\numberline {1.5.2}V\IeC {\'y}robkov\IeC {\'a} koncepce}{4}\protected@file@percent }
\@writefile{toc}{\contentsline {subsubsection}{\numberline {1.5.3}Prodejn\IeC {\'\i } koncepce}{4}\protected@file@percent }
\@writefile{toc}{\contentsline {subsubsection}{\numberline {1.5.4}Marketingov\IeC {\'a} koncepce}{4}\protected@file@percent }
\@writefile{toc}{\contentsline {subsubsection}{\numberline {1.5.5}Komparace prodejn\IeC {\'\i } a marketingov\IeC {\'e} koncepce}{5}\protected@file@percent }
\@writefile{toc}{\contentsline {subsubsection}{\numberline {1.5.6}Soci\IeC {\'a}ln\IeC {\v e} marketingov\IeC {\'a} koncepce}{5}\protected@file@percent }
\@writefile{toc}{\contentsline {subsubsection}{\numberline {1.5.7}Spole\IeC {\v c}ensk\IeC {\'a} odpov\IeC {\v e}dnost firem}{5}\protected@file@percent }
\@writefile{toc}{\contentsline {section}{\numberline {2}Marketingov\IeC {\'e} prost\IeC {\v r}ed\IeC {\'\i }}{5}\protected@file@percent }
\@writefile{toc}{\contentsline {subsection}{\numberline {2.1}Makroprost\IeC {\v r}ed\IeC {\'\i }}{5}\protected@file@percent }
\@writefile{toc}{\contentsline {subsection}{\numberline {2.2}Mezoprost\IeC {\v r}ed\IeC {\'\i }}{7}\protected@file@percent }
\@writefile{toc}{\contentsline {subsubsection}{\numberline {2.2.1}Konkurence}{7}\protected@file@percent }
\@writefile{toc}{\contentsline {subsubsection}{\numberline {2.2.2}Z\IeC {\'a}kazn\IeC {\'\i }ci}{8}\protected@file@percent }
\@writefile{toc}{\contentsline {subsubsection}{\numberline {2.2.3}Dodavatel\IeC {\'e}}{8}\protected@file@percent }
\@writefile{toc}{\contentsline {subsubsection}{\numberline {2.2.4}Marketingov\IeC {\'\i } prost\IeC {\v r}ednici}{8}\protected@file@percent }
\@writefile{toc}{\contentsline {subsubsection}{\numberline {2.2.5}Ve\IeC {\v r}ejnost}{8}\protected@file@percent }
\@writefile{toc}{\contentsline {subsection}{\numberline {2.3}Mikroprost\IeC {\v r}ed\IeC {\'\i }}{8}\protected@file@percent }
\@writefile{toc}{\contentsline {subsubsection}{\numberline {2.3.1}Zdroje}{9}\protected@file@percent }
\@writefile{toc}{\contentsline {subsubsection}{\numberline {2.3.2}Schopnosti}{9}\protected@file@percent }
\@writefile{toc}{\contentsline {subsubsection}{\numberline {2.3.3}Kultura}{9}\protected@file@percent }
\@writefile{toc}{\contentsline {subsubsection}{\numberline {2.3.4}Mezilidsk\IeC {\'e} vztahy}{9}\protected@file@percent }
\@writefile{toc}{\contentsline {subsubsection}{\numberline {2.3.5}Organiza\IeC {\v c}n\IeC {\'\i } model}{9}\protected@file@percent }
\@writefile{toc}{\contentsline {subsubsection}{\numberline {2.3.6}Kvalita managementu}{9}\protected@file@percent }
\@writefile{toc}{\contentsline {subsubsection}{\numberline {2.3.7}Kvalita pracovn\IeC {\'\i }k\IeC {\r u}}{9}\protected@file@percent }
\@writefile{toc}{\contentsline {section}{\numberline {3}Segmentace, Targeting, Positioning}{9}\protected@file@percent }
\@writefile{toc}{\contentsline {subsection}{\numberline {3.1}Segmentace}{9}\protected@file@percent }
\@writefile{toc}{\contentsline {subsubsection}{\numberline {3.1.1}V\IeC {\'y}znam segmentace}{9}\protected@file@percent }
\@writefile{toc}{\contentsline {subsubsection}{\numberline {3.1.2}Po\IeC {\v z}adavky na segment}{10}\protected@file@percent }
\@writefile{toc}{\contentsline {subsection}{\numberline {3.2}Krit\IeC {\'e}ria segmentace spot\IeC {\v r}ebn\IeC {\'\i }ch trh\IeC {\r u}}{10}\protected@file@percent }
\@writefile{toc}{\contentsline {subsubsection}{\numberline {3.2.1}Demografick\IeC {\'a} krit\IeC {\'e}ria}{10}\protected@file@percent }
\@writefile{toc}{\contentsline {subsubsection}{\numberline {3.2.2}Geografick\IeC {\'a} krit\IeC {\'e}ria}{10}\protected@file@percent }
\@writefile{toc}{\contentsline {subsubsection}{\numberline {3.2.3}Psychografick\IeC {\'a} krit\IeC {\'e}ria}{10}\protected@file@percent }
\@writefile{toc}{\contentsline {subsubsection}{\numberline {3.2.4}Behavior\IeC {\'a}ln\IeC {\'\i } krit\IeC {\'e}ria}{10}\protected@file@percent }
\@writefile{toc}{\contentsline {subsection}{\numberline {3.3}Targeting}{11}\protected@file@percent }
\@writefile{toc}{\contentsline {subsection}{\numberline {3.4}Nediferenciovan\IeC {\'a} strategie tr\IeC {\v z}n\IeC {\'\i }ho c\IeC {\'\i }len\IeC {\'\i }}{11}\protected@file@percent }
\@writefile{toc}{\contentsline {subsection}{\numberline {3.5}Diferencovan\IeC {\'a} strategie tr\IeC {\v z}n\IeC {\'\i }ho c\IeC {\'\i }len\IeC {\'\i }}{11}\protected@file@percent }
\@writefile{toc}{\contentsline {subsection}{\numberline {3.6}Koncentrovan\IeC {\'a} strategie tr\IeC {\v z}n\IeC {\'\i }ho c\IeC {\'\i }len\IeC {\'\i } - niche marketing}{11}\protected@file@percent }
\@writefile{toc}{\contentsline {section}{\numberline {4}Positioning}{11}\protected@file@percent }
\@writefile{toc}{\contentsline {subsection}{\numberline {4.1}Repositioning}{11}\protected@file@percent }
