\relax 
\catcode `"\active 
\catcode `-\active 
\babel@aux{czech}{}
\@writefile{toc}{\contentsline {section}{\numberline {1}\IeC {\'U}vod}{1}\protected@file@percent }
\@writefile{toc}{\contentsline {section}{\numberline {2}Vymezen\IeC {\'\i } podnik\IeC {\'a}n\IeC {\'\i } a podnikatele}{1}\protected@file@percent }
\@writefile{toc}{\contentsline {section}{\numberline {3}Pojet\IeC {\'\i } podnik\IeC {\'a}n\IeC {\'\i }}{1}\protected@file@percent }
\@writefile{toc}{\contentsline {section}{\numberline {4}Faktory ovliv\IeC {\v n}uj\IeC {\'\i }c\IeC {\'\i } \IeC {\'u}sp\IeC {\v e}ch v podnik\IeC {\'a}n\IeC {\'\i }}{2}\protected@file@percent }
\@writefile{toc}{\contentsline {section}{\numberline {5}Mal\IeC {\'e} a st\IeC {\v r}edn\IeC {\'\i } podniky}{2}\protected@file@percent }
\@writefile{toc}{\contentsline {subsection}{\numberline {5.1}Definov\IeC {\'a}n\IeC {\'\i } MSP}{2}\protected@file@percent }
\@writefile{toc}{\contentsline {subsubsection}{\numberline {5.1.1}Zdroje \IeC {\'u}daj\IeC {\r u} pro definov\IeC {\'a}n\IeC {\'\i }}{2}\protected@file@percent }
\@writefile{toc}{\contentsline {subsubsection}{\numberline {5.1.2}Nez\IeC {\'a}vislost}{2}\protected@file@percent }
\@writefile{toc}{\contentsline {subsubsection}{\numberline {5.1.3}Definov\IeC {\'a}n\IeC {\'\i } v USA (SBA)}{2}\protected@file@percent }
\@writefile{toc}{\contentsline {subsection}{\numberline {5.2}Small Business Acti}{3}\protected@file@percent }
\@writefile{toc}{\contentsline {subsection}{\numberline {5.3}Zalo\IeC {\v z}en\IeC {\'\i } podniu v \IeC {\v C}R}{3}\protected@file@percent }
\@writefile{toc}{\contentsline {section}{\numberline {6}Zalo\IeC {\v z}en\IeC {\'\i } podnik\IeC {\'a}n\IeC {\'\i }}{3}\protected@file@percent }
\@writefile{toc}{\contentsline {section}{\numberline {7}Z\IeC {\'a}kon o \IeC {\v z}ivnostensk\IeC {\'e}m podnik\IeC {\'a}n\IeC {\'\i }}{3}\protected@file@percent }
\@writefile{toc}{\contentsline {subsection}{\numberline {7.1}P\IeC {\v r}ek\IeC {\'a}\IeC {\v z}ky provozov\IeC {\'a}n\IeC {\'\i } \IeC {\v z}ivnosti}{4}\protected@file@percent }
\@writefile{toc}{\contentsline {subsection}{\numberline {7.2}Rozd\IeC {\v e}len\IeC {\'\i } \IeC {\v z}ivnosti}{4}\protected@file@percent }
\@writefile{toc}{\contentsline {subsection}{\numberline {7.3}Odpov\IeC {\v e}dn\IeC {\'y} z\IeC {\'a}supce}{4}\protected@file@percent }
\@writefile{toc}{\contentsline {subsection}{\numberline {7.4}Provozovna}{5}\protected@file@percent }
\@writefile{toc}{\contentsline {subsection}{\numberline {7.5}Zalo\IeC {\v z}en\IeC {\'\i } \IeC {\v z}ivnosti}{5}\protected@file@percent }
\@writefile{toc}{\contentsline {section}{\numberline {8}Spole\IeC {\v c}onst s ru\IeC {\v c}en\IeC {\'\i }m ozemen\IeC {\'y}m}{5}\protected@file@percent }
\@writefile{toc}{\contentsline {subsection}{\numberline {8.1}Zalo\IeC {\v z}en\IeC {\'\i } a vznik sro}{6}\protected@file@percent }
\@writefile{toc}{\contentsline {subsection}{\numberline {8.2}Obchodn\IeC {\'\i } listiny}{6}\protected@file@percent }
\@writefile{toc}{\contentsline {subsection}{\numberline {8.3}Ve\IeC {\v r}ejn\IeC {\'y} rejst\IeC {\v r}\IeC {\'\i }k}{6}\protected@file@percent }
\@writefile{toc}{\contentsline {subsection}{\numberline {8.4}Zalo\IeC {\v z}en\IeC {\'\i } sro jedin\IeC {\'y}m spole\IeC {\v c}n\IeC {\'\i }kem}{6}\protected@file@percent }
\@writefile{toc}{\contentsline {subsection}{\numberline {8.5}Vznik sro}{7}\protected@file@percent }
\@writefile{toc}{\contentsline {subsection}{\numberline {8.6}Shrnut\IeC {\'\i } postupu zalo\IeC {\v z}en\IeC {\'\i } sro}{7}\protected@file@percent }
\@writefile{toc}{\contentsline {subsection}{\numberline {8.7}Spole\IeC {\v c}n\IeC {\'\i }ci}{7}\protected@file@percent }
