\select@language {czech}
\contentsline {section}{\numberline {1}Charakteristika podnikov\IeC {\'y}ch financ\IeC {\'\i }, z\IeC {\'a}kladn\IeC {\'\i } pojmy (pen\IeC {\v e}\IeC {\v z}n\IeC {\'\i } prost\IeC {\v r}edky, podnikov\IeC {\'y} kapit\IeC {\'a}l, finan\IeC {\v c}n\IeC {\'\i } zdroje) podnikov\IeC {\'y}ch financ\IeC {\'\i }. Podstata finan\IeC {\v c}n\IeC {\'\i }ho \IeC {\v r}\IeC {\'\i }zen\IeC {\'\i } podniku Finan\IeC {\v c}n\IeC {\'\i } c\IeC {\'\i }le podn\IeC {\'\i }k\IeC {\'a}n\IeC {\'\i }. Principy finan\IeC {\v c}n\IeC {\'\i }ho \IeC {\v r}\IeC {\'\i }zen\IeC {\'\i }}{10}
\contentsline {subsection}{\numberline {1.1}Finance}{10}
\contentsline {subsection}{\numberline {1.2}Historie}{10}
\contentsline {subsection}{\numberline {1.3}Podstata podnikov\IeC {\'y}ch financn\IeC {\'\i }}{10}
\contentsline {subsubsection}{\numberline {1.3.1}Pen\IeC {\v e}\IeC {\v z}n\IeC {\'\i } Prost\IeC {\v r}edky (PP)}{10}
\contentsline {subsubsection}{\numberline {1.3.2}Podnikov\IeC {\'y} Kapit\IeC {\'a}l (PK)}{11}
\contentsline {subsubsection}{\numberline {1.3.3}Finan\IeC {\v c}n\IeC {\'\i } Zdroje (FZ)}{11}
\contentsline {subsection}{\numberline {1.4}Podnikov\IeC {\'e} finance}{12}
\contentsline {subsection}{\numberline {1.5}Finan\IeC {\v c}n\IeC {\'\i } \IeC {\v r}\IeC {\'\i }zen\IeC {\'\i }}{12}
\contentsline {subsubsection}{\numberline {1.5.1}\IeC {\'U}kol finan\IeC {\v c}n\IeC {\'\i }ho \IeC {\v r}\IeC {\'\i }zen\IeC {\'\i }}{12}
\contentsline {subsubsection}{\numberline {1.5.2}C\IeC {\'\i }le finan\IeC {\v c}n\IeC {\'\i }ho \IeC {\v r}\IeC {\'\i }zen\IeC {\'\i }}{12}
\contentsline {subsection}{\numberline {1.6}Finan\IeC {\v c}n\IeC {\'\i } rozhodov\IeC {\'a}n\IeC {\'\i }}{12}
\contentsline {subsubsection}{\numberline {1.6.1}Kr\IeC {\'a}tkodob\IeC {\'e} rozhodov\IeC {\'a}n\IeC {\'\i }}{13}
\contentsline {subsubsection}{\numberline {1.6.2}Dlouhodob\IeC {\'e} rozhodov\IeC {\'a}n\IeC {\'\i }}{13}
\contentsline {subsection}{\numberline {1.7}Principy finan\IeC {\v c}n\IeC {\'\i }ho \IeC {\v r}\IeC {\'\i }zen\IeC {\'\i }}{13}
\contentsline {section}{\numberline {2}Finan\IeC {\v c}n\IeC {\'\i } syst\IeC {\'e}m, Podstata, \IeC {\v c}len\IeC {\v e}nn\IeC {\'\i } a n\IeC {\'a}stroje finan\IeC {\v c}n\IeC {\'\i }ho trhu. Podnikov\IeC {\'e} dan\IeC {\v e}. Vliv dan\IeC {\v e} ze zisku na finan\IeC {\v c}n\IeC {\'\i } rozhodov\IeC {\'a}n\IeC {\'\i } podniku.}{14}
\contentsline {subsection}{\numberline {2.1}Finan\IeC {\v c}n\IeC {\'\i } syst\IeC {\'e}m}{14}
\contentsline {subsection}{\numberline {2.2}Finan\IeC {\v c}n\IeC {\'\i } trhy}{14}
\contentsline {subsubsection}{\numberline {2.2.1}Rozd\IeC {\v e}len\IeC {\'\i } finan\IeC {\v c}n\IeC {\'\i }ch trh\IeC {\r u}}{14}
\contentsline {subsubsection}{\numberline {2.2.2}N\IeC {\'a}stroje finan\IeC {\v c}n\IeC {\'\i }ho trhu}{15}
\contentsline {subsection}{\numberline {2.3}Dan\IeC {\v e} a finan\IeC {\v c}n\IeC {\'\i } rozhodov\IeC {\'a}n\IeC {\'\i } podniku}{15}
\contentsline {subsubsection}{\numberline {2.3.1}\IeC {\v C}len\IeC {\v e}n\IeC {\'\i } dan\IeC {\'\i }}{16}
\contentsline {subsubsection}{\numberline {2.3.2}Vliv dan\IeC {\v e} ze zisku na finan\IeC {\v c}n\IeC {\'\i } rozhodov\IeC {\'a}n\IeC {\'\i } podniku}{16}
\contentsline {section}{\numberline {3}Rozvaha podniku - v\IeC {\'y}znam \IeC {\'u}\IeC {\v c}etn\IeC {\'\i }ch informac\IeC {\'\i }, dvojjedin\IeC {\'e} naz\IeC {\'\i }r\IeC {\'a}n\IeC {\'\i } na majetek podniku, bilan\IeC {\v c}n\IeC {\'\i } princip, struktura bilance. Integra\IeC {\v c}n\IeC {\'\i } vazby finan\IeC {\v c}n\IeC {\'\i }ch v\IeC {\'y}kaz\IeC {\r u} a jejich vypov\IeC {\'\i }dac\IeC {\'\i } schopnost z hlediska finan\IeC {\v c}n\IeC {\'\i }ho \IeC {\v r}\IeC {\'\i }zen\IeC {\'\i }}{17}
\contentsline {subsection}{\numberline {3.1}Rozvaha}{17}
\contentsline {subsection}{\numberline {3.2}V\IeC {\'y}znam \IeC {\'u}\IeC {\v c}etn\IeC {\'\i }ch informac\IeC {\'\i } pro fina\IeC {\v c}n\IeC {\'\i } \IeC {\v r}\IeC {\'\i }zen\IeC {\'\i } a rozhodov\IeC {\'a}n\IeC {\'\i } podniku}{17}
\contentsline {subsection}{\numberline {3.3}\IeC {\'U}daje z rozvahy}{17}
\contentsline {subsection}{\numberline {3.4}Integra\IeC {\v c}n\IeC {\'\i } vazby mezi fina\IeC {\v c}n\IeC {\'\i }mi v\IeC {\'y}kazy - tribilan\IeC {\v c}n\IeC {\'\i } syst\IeC {\'e}m}{19}
\contentsline {subsection}{\numberline {3.5}Vypov\IeC {\'\i }dac\IeC {\'\i } schopnost z hlediska finan\IeC {\v c}n\IeC {\'\i }ho \IeC {\v r}\IeC {\'\i }zen\IeC {\'\i }}{19}
\contentsline {section}{\numberline {4}Majetkov\IeC {\'a} struktura podniku - zobrazen\IeC {\'\i } majetku v rozvaze, faktory ovliv\IeC {\v n}uj\IeC {\'\i }c\IeC {\'\i } objem a strukturu podnikov\IeC {\'e}ho majetku. Optimalizace kapit\IeC {\'a}lov\IeC {\'e} struktury: n\IeC {\'a}klady kapit\IeC {\'a}lu, faktory ovliv\IeC {\v n}uj\IeC {\'\i }c\IeC {\'\i } kapit\IeC {\'a}lovou strukturu podniku. \uv {U} k\IeC {\v r}ivka}{19}
\contentsline {subsection}{\numberline {4.1}St\IeC {\'a}l\IeC {\'a} aktiva}{19}
\contentsline {subsection}{\numberline {4.2}Ob\IeC {\v e}\IeC {\v z}n\IeC {\'a} aktiva}{20}
\contentsline {subsection}{\numberline {4.3}Celkovou v\IeC {\'y}\IeC {\v s}i majetku ovliv\IeC {\v n}uje}{21}
\contentsline {subsection}{\numberline {4.4}Oce\IeC {\v n}ov\IeC {\'a}n\IeC {\'\i } hmotn\IeC {\'e}ho majetku}{21}
\contentsline {subsection}{\numberline {4.5}Oce\IeC {\v n}ov\IeC {\'a}n\IeC {\'\i } z\IeC {\'a}sob}{21}
\contentsline {subsection}{\numberline {4.6}Oce\IeC {\v n}ov\IeC {\'a}n\IeC {\'\i } pen\IeC {\v e}\IeC {\v z}n\IeC {\'\i }ch prost\IeC {\v r}edk\IeC {\r u} a cenin}{21}
\contentsline {subsection}{\numberline {4.7}Oce\IeC {\v n}ov\IeC {\'a}n\IeC {\'\i } cenn\IeC {\'y}ch pap\IeC {\'\i }r\IeC {\r u}}{21}
\contentsline {subsection}{\numberline {4.8}Oce\IeC {\v n}ov\IeC {\'a}n\IeC {\'\i } pohled\IeC {\'a}vek}{22}
\contentsline {subsection}{\numberline {4.9}Oce\IeC {\v n}ov\IeC {\'a}n\IeC {\'\i } z\IeC {\'a}vazk\IeC {\r u}}{22}
\contentsline {subsection}{\numberline {4.10}Strukturu majetku ovliv\IeC {\v n}uje}{22}
\contentsline {subsection}{\numberline {4.11}Odpisy}{22}
\contentsline {subsection}{\numberline {4.12}Optim\IeC {\'a}ln\IeC {\'\i } finan\IeC {\v c}n\IeC {\'\i } struktura}{23}
\contentsline {subsubsection}{\numberline {4.12.1}N\IeC {\'a}klady kapit\IeC {\'a}lu}{23}
\contentsline {subsection}{\numberline {4.13}Faktory ovliv\IeC {\v n}uj\IeC {\'\i }c\IeC {\'\i } n\IeC {\'a}klady jednotliv\IeC {\'y}ch druh\IeC {\r u} kapit\IeC {\'a}lu}{24}
\contentsline {subsection}{\numberline {4.14}Doba splatnosti kapit\IeC {\'a}lu}{24}
\contentsline {subsubsection}{\numberline {4.14.1}Riziko (stupe\IeC {\v n} rizika)}{24}
\contentsline {subsubsection}{\numberline {4.14.2}Syst\IeC {\'e}m zdan\IeC {\v e}n\IeC {\'\i }}{25}
\contentsline {subsection}{\numberline {4.15}Faktory ovliv\IeC {\v n}uj\IeC {\'\i }c\IeC {\'\i } OFS}{25}
\contentsline {subsection}{\numberline {4.16}Mo\IeC {\v z}nosti financov\IeC {\'a}n\IeC {\'\i } majetku podniku a jeho finan\IeC {\v c}n\IeC {\'\i } d\IeC {\r u}sledky}{25}
\contentsline {subsubsection}{\numberline {4.16.1}Um\IeC {\'\i }rn\IeC {\v e}n\IeC {\'y} zp\IeC {\r u}sob financov\IeC {\'a}n\IeC {\'\i }}{25}
\contentsline {subsubsection}{\numberline {4.16.2}Konzervatin\IeC {\'\i } zp\IeC {\r u}sob financov\IeC {\'a}n\IeC {\'\i }}{26}
\contentsline {subsubsection}{\numberline {4.16.3}Agresivn\IeC {\'\i } zp\IeC {\r u}sob financov\IeC {\'a}n\IeC {\'\i }}{26}
\contentsline {subsection}{\numberline {4.17}\IeC {\v C}ist\IeC {\'y} Pracovn\IeC {\'\i } Kapit\IeC {\'a}l (\IeC {\v C}PK)}{26}
\contentsline {subsubsection}{\numberline {4.17.1}kr\IeC {\'a}tkodob\IeC {\'y}}{26}
\contentsline {section}{\numberline {5}Struktura a informa\IeC {\v c}n\IeC {\'\i } obsah v\IeC {\'y}kazu zisku a ztr\IeC {\'a}ty. Transformace \IeC {\'u}\IeC {\v c}etn\IeC {\'\i }ho v\IeC {\'y}sleku hospoda\IeC {\v r}en\IeC {\'\i } na da\IeC {\v n}ov\IeC {\'y} z\IeC {\'a}klad, rozd\IeC {\v e}len\IeC {\'\i } disponibiln\IeC {\'\i }ho zisku v akciov\IeC {\'e} spole\IeC {\v c}nosti}{27}
\contentsline {subsubsection}{\numberline {5.0.1}V\IeC {\'y}kaz zisku a ztr\IeC {\'a}ty (VZaZ)}{27}
\contentsline {subsection}{\numberline {5.1}Funkce VZaZ}{27}
\contentsline {subsubsection}{\numberline {5.1.1}Princip v\IeC {\v e}cn\IeC {\'e} shody v\IeC {\'y}nos\IeC {\r u} a n\IeC {\'a}klad\IeC {\r u}}{27}
\contentsline {subsubsection}{\numberline {5.1.2}Akru\IeC {\'a}ln\IeC {\'\i } princip}{27}
\contentsline {subsection}{\numberline {5.2}N\IeC {\'a}klady}{27}
\contentsline {subsection}{\numberline {5.3}V\IeC {\'y}nosy}{28}
\contentsline {subsection}{\numberline {5.4}Struktura VZaZ}{28}
\contentsline {subsection}{\numberline {5.5}Z\IeC {\'a}kladn\IeC {\'\i } struktura VZaZ}{28}
\contentsline {subsection}{\numberline {5.6}Transformace \IeC {\'u}\IeC {\v c}etn\IeC {\'\i }ho VH na da\IeC {\v n}ov\IeC {\'y} z\IeC {\'a}klad}{29}
\contentsline {subsubsection}{\numberline {5.6.1}Hospod\IeC {\'a}\IeC {\v r}sk\IeC {\'y} rok}{30}
\contentsline {subsubsection}{\numberline {5.6.2}Kalend\IeC {\'a}\IeC {\v r}n\IeC {\'\i } rok}{30}
\contentsline {subsubsection}{\numberline {5.6.3}Z\IeC {\'a}kon o obchodn\IeC {\'\i }ch korporac\IeC {\'\i }ch}{30}
\contentsline {subsection}{\numberline {5.7}Rozd\IeC {\v e}len\IeC {\'\i } zisku u akciov\IeC {\'e} spole\IeC {\v c}nosti}{30}
\contentsline {subsection}{\numberline {5.8}Rozd\IeC {\v e}len\IeC {\'\i } disponibiln\IeC {\'\i }ho zisku (\IeC {\v c}ist\IeC {\'e}ho zisku) v obchodn\IeC {\'\i }ch spole\IeC {\v c}nostech}{31}
\contentsline {subsubsection}{\numberline {5.8.1}Odliv zisku z podniku}{31}
\contentsline {subsubsection}{\numberline {5.8.2}Zadr\IeC {\v z}en\IeC {\'a} \IeC {\v c}\IeC {\'a}st zisk\IeC {\r u}}{31}
\contentsline {section}{\numberline {6}Cash flow - kategorie: p\IeC {\v r}\IeC {\'\i }jem, v\IeC {\'y}daj; jejich \IeC {\v c}asov\IeC {\'y} a obsahov\IeC {\'y} nesoulad s v\IeC {\'y}nosy a n\IeC {\'a}klady podniku. Metody a zp\IeC {\r u}soby sestavov\IeC {\'a}n\IeC {\'\i } v\IeC {\'y}kazu CF}{32}
\contentsline {subsection}{\numberline {6.1}Cash flow (CF)}{32}
\contentsline {subsubsection}{\numberline {6.1.1}pen\IeC {\v e}\IeC {\v z}n\IeC {\'\i } toky $\rightarrow $ CF p\IeC {\v r}edstavuj\IeC {\'\i }:}{32}
\contentsline {subsection}{\numberline {6.2}\IeC {\v C}asov\IeC {\'y} a obsahov\IeC {\'y} nesoulad mezi v\IeC {\'y}nosy a p\IeC {\v r}\IeC {\'\i }jmy, mezi n\IeC {\'a}klady a v\IeC {\'y}daji}{32}
\contentsline {subsubsection}{\numberline {6.2.1}P\IeC {\v r}\IeC {\'\i }jmy vs. V\IeC {\'y}nosy}{32}
\contentsline {subsubsection}{\numberline {6.2.2}V\IeC {\'y}daje vs. N\IeC {\'a}klady}{33}
\contentsline {subsection}{\numberline {6.3}Struktura v\IeC {\'y}kazu CF}{33}
\contentsline {subsection}{\numberline {6.4}Metody sestaven\IeC {\'\i } CF}{33}
\contentsline {subsubsection}{\numberline {6.4.1}P\IeC {\v r}\IeC {\'\i }m\IeC {\'a} metoda}{33}
\contentsline {subsubsection}{\numberline {6.4.2}Nep\IeC {\v r}\IeC {\'\i }m\IeC {\'a} metoda}{34}
\contentsline {subsection}{\numberline {6.5}Zp\IeC {\r u}soby sestaven\IeC {\'\i } CF}{34}
\contentsline {subsection}{\numberline {6.6}P\IeC {\v r}\IeC {\'\i }m\IeC {\'a} metoda sestaven\IeC {\'\i } v\IeC {\'y}kazu CF}{34}
\contentsline {subsubsection}{\numberline {6.6.1}Bilan\IeC {\v c}n\IeC {\'\i } zp\IeC {\r u}sob}{34}
\contentsline {subsubsection}{\numberline {6.6.2}Sloupcov\IeC {\'y} zp\IeC {\r u}sob}{35}
\contentsline {subsubsection}{\numberline {6.6.3}CF z provozn\IeC {\'\i } \IeC {\v c}innosti}{35}
\contentsline {subsubsection}{\numberline {6.6.4}CF z investi\IeC {\v c}n\IeC {\'\i } \IeC {\v c}innosti}{35}
\contentsline {subsubsection}{\numberline {6.6.5}CF z finan\IeC {\v c}n\IeC {\'\i } \IeC {\v c}innosti}{35}
\contentsline {subsection}{\numberline {6.7}Nep\IeC {\v r}\IeC {\'\i }m\IeC {\'a} metoda sestaven\IeC {\'\i } v\IeC {\'y}kazu CF}{36}
\contentsline {subsubsection}{\numberline {6.7.1}V\IeC {\'y}kaz CF - nep\IeC {\v r}\IeC {\'\i }m\IeC {\'a} metoda - pln\IeC {\'y} rozsah}{36}
\contentsline {subsubsection}{\numberline {6.7.2}V\IeC {\'y}kaz Cf - nep\IeC {\v r}\IeC {\'\i }m\IeC {\'a} metoda - zjednosdu\IeC {\v s}en\IeC {\'a}}{36}
\contentsline {subsubsection}{\numberline {6.7.3}Zdroje informac\IeC {\'\i } pro sestaven\IeC {\'\i } v\IeC {\'y}kazu CF}{37}
\contentsline {subsubsection}{\numberline {6.7.4}P\IeC {\v r}\IeC {\'\i }jmy}{37}
\contentsline {subsubsection}{\numberline {6.7.5}V\IeC {\'y}daje}{37}
\contentsline {subsection}{\numberline {6.8}Vyu\IeC {\v z}it\IeC {\'\i } v\IeC {\'y}kazu CF}{37}
\contentsline {subsection}{\numberline {6.9}Ov\IeC {\v e}\IeC {\v r}en\IeC {\'\i } v\IeC {\'y}po\IeC {\v c}tu CF}{37}
\contentsline {subsection}{\numberline {6.10}\IeC {\'U}\IeC {\v c}etn\IeC {\'\i } z\IeC {\'a}v\IeC {\v e}rka}{38}
\contentsline {section}{\numberline {7}Finan\IeC {\v c}n\IeC {\'\i } anal\IeC {\'y}za - charakteristika, f\IeC {\'a}ze FA, zp\IeC {\r u}soby srovn\IeC {\'a}n\IeC {\'\i } v\IeC {\'y}slek\IeC {\r u} FA. Zdroje informac\IeC {\'\i } pro finan\IeC {\v c}n\IeC {\'\i } anal\IeC {\'y}zu. Metodick\IeC {\'e} postupy FA.}{38}
\contentsline {subsection}{\numberline {7.1}Finan\IeC {\v c}n\IeC {\'\i } anal\IeC {\'y}za}{38}
\contentsline {subsection}{\numberline {7.2}Hlavn\IeC {\'\i } \IeC {\'u}kol FA}{38}
\contentsline {subsection}{\numberline {7.3}Jak poznat finan\IeC {\v c}n\IeC {\v e} zdravou firmu}{38}
\contentsline {subsection}{\numberline {7.4}FA se prov\IeC {\'a}d\IeC {\'\i } v z\IeC {\'a}jmu}{38}
\contentsline {subsection}{\numberline {7.5}Postup prov\IeC {\'a}d\IeC {\v e}n\IeC {\'\i } FA}{39}
\contentsline {subsubsection}{\numberline {7.5.1}Diagn\IeC {\'o}za z\IeC {\'a}kladn\IeC {\'\i }ch charakteristik finan\IeC {\v c}n\IeC {\'\i } situace}{39}
\contentsline {subsubsection}{\numberline {7.5.2}Hlub\IeC {\v s}\IeC {\'\i } rozbor p\IeC {\v r}\IeC {\'\i }\IeC {\v c}in zji\IeC {\v s}t\IeC {\v e}n\IeC {\'e}ho stavu}{39}
\contentsline {subsubsection}{\numberline {7.5.3}Identifikace hlavn\IeC {\'\i }ch faktor\IeC {\r u} ne\IeC {\v z}\IeC {\'a}douc\IeC {\'\i }ho v\IeC {\'y}voje a p\IeC {\v r}ijet\IeC {\'\i } opat\IeC {\v r}en\IeC {\'\i }}{39}
\contentsline {subsubsection}{\numberline {7.5.4}F\IeC {\'a}ze FA}{39}
\contentsline {subsection}{\numberline {7.6}Z\IeC {\'a}kladn\IeC {\'\i } zdroje informac\IeC {\'\i } pro FA}{39}
\contentsline {subsubsection}{\numberline {7.6.1}Finan\IeC {\v c}n\IeC {\'\i } informace}{39}
\contentsline {subsubsection}{\numberline {7.6.2}Kvantifikovateln\IeC {\'e} nefinan\IeC {\v c}n\IeC {\'\i } informace}{39}
\contentsline {subsubsection}{\numberline {7.6.3}Nekvantifikovateln\IeC {\'e} nefinan\IeC {\v c}n\IeC {\'\i } informace}{40}
\contentsline {subsection}{\numberline {7.7}Zp\IeC {\r u}soby srovn\IeC {\'a}n\IeC {\'\i } v\IeC {\'y}sledk\IeC {\r u} FA}{40}
\contentsline {subsubsection}{\numberline {7.7.1}Srovn\IeC {\'a}v\IeC {\'a}n\IeC {\'\i } v \IeC {\v c}ase (anal\IeC {\'y}zy trend\IeC {\r u})}{40}
\contentsline {subsubsection}{\numberline {7.7.2}Srovn\IeC {\'a}n\IeC {\'\i } v prostoru (mezipodnikov\IeC {\'e})}{40}
\contentsline {subsubsection}{\numberline {7.7.3}Srovn\IeC {\'a}v\IeC {\'a}n\IeC {\'\i } skute\IeC {\v c}nosti s pl\IeC {\'a}nem}{40}
\contentsline {subsubsection}{\numberline {7.7.4}Srovn\IeC {\'a}v\IeC {\'a}n\IeC {\'\i } na z\IeC {\'a}klad\IeC {\v e} expertnich zku\IeC {\v s}enost\IeC {\'\i } (odborn\IeC {\'y}ch odhad\IeC {\r u})}{40}
\contentsline {subsection}{\numberline {7.8}Rozbor \IeC {\'u}\IeC {\v c}etn\IeC {\'\i }ch v\IeC {\'y}kaz\IeC {\r u}, 2 metodick\IeC {\'e} postupy}{40}
\contentsline {subsubsection}{\numberline {7.8.1}Procentn\IeC {\'\i } rozbor}{40}
\contentsline {subsubsection}{\numberline {7.8.2}V\IeC {\'y}hody procentn\IeC {\'\i }ho rozboru}{41}
\contentsline {subsubsection}{\numberline {7.8.3}Nev\IeC {\'y}hody procentn\IeC {\'\i }ho rozboru}{41}
\contentsline {subsubsection}{\numberline {7.8.4}Pom\IeC {\v e}rov\IeC {\'a} anal\IeC {\'y}za}{41}
\contentsline {subsubsection}{\numberline {7.8.5}V\IeC {\'y}hody pom\IeC {\v e}rov\IeC {\'e} anal\IeC {\'y}zy}{42}
\contentsline {subsubsection}{\numberline {7.8.6}skupiny pom\IeC {\v e}rov\IeC {\'y}ch ukazatel\IeC {\r u}}{42}
\contentsline {section}{\numberline {8}Ukazatele finan\IeC {\v c}n\IeC {\'\i } stability podniku. Ukazatele finan\IeC {\v c}n\IeC {\'\i }ho trhu.}{42}
\contentsline {subsection}{\numberline {8.1}Ukazatele zadlu\IeC {\v z}enosti}{42}
\contentsline {subsubsection}{\numberline {8.1.1}Pod\IeC {\'\i }l vlastn\IeC {\'\i }ho kapit\IeC {\'a}lu na aktivech}{42}
\contentsline {subsubsection}{\numberline {8.1.2}Stupe\IeC {\v n} kryt\IeC {\'\i } st\IeC {\'a}l\IeC {\'y}ch aktiv}{43}
\contentsline {subsubsection}{\numberline {8.1.3}Majetkov\IeC {\'y} koeficient (finan\IeC {\v c}n\IeC {\'\i } p\IeC {\'a}ka)}{43}
\contentsline {subsubsection}{\numberline {8.1.4}Ukazatel celkov\IeC {\'e} zadlu\IeC {\v z}enosti (ukazatel v\IeC {\v e}\IeC {\v r}itelsk\IeC {\'e}ho rizika)}{43}
\contentsline {subsubsection}{\numberline {8.1.5}Ukazatel zadlu\IeC {\v z}enosti vlastn\IeC {\'\i }ho kapit\IeC {\'a}lu}{43}
\contentsline {subsubsection}{\numberline {8.1.6}\IeC {\'U}rokov\IeC {\'e} kryt\IeC {\'\i } (ukazatel ziskov\IeC {\'e} \IeC {\'u}hrady \IeC {\'u}rok\IeC {\r u})}{43}
\contentsline {subsubsection}{\numberline {8.1.7}Ukazatel \IeC {\'u}rokov\IeC {\'e}ho zat\IeC {\'\i }\IeC {\v z}en\IeC {\'\i }}{44}
\contentsline {subsubsection}{\numberline {8.1.8}Kategorie zisku}{44}
\contentsline {subsection}{\numberline {8.2}Ukazatele finan\IeC {\v c}n\IeC {\'\i }ho trhu}{44}
\contentsline {subsubsection}{\numberline {8.2.1}Zisk na akcii - earnings per share}{44}
\contentsline {subsubsection}{\numberline {8.2.2}Ukazatel P/E = $\frac {\text {tr\IeC {\v z}n\IeC {\'\i } cena akcie}}{\text {\IeC {\v c}ist\IeC {\'y} zisk na akcii}}$}{45}
\contentsline {subsubsection}{\numberline {8.2.3}$\textbf {Dividendov\IeC {\'y} v\IeC {\'y}nos} = \frac {\text {dividenda na 1 kmenovou akcii}}{\text {tr\IeC {\v z}n\IeC {\'\i } cena akcie}}$}{45}
\contentsline {subsubsection}{\numberline {8.2.4}$\text {Market - to - book ratio} = \frac {\text {tr\IeC {\v z}n\IeC {\'\i } cena akcie}}{\text {\IeC {\'u}\IeC {\v c}etn\IeC {\'\i } hodnota akcie}}$}{45}
\contentsline {subsection}{\numberline {8.3}Z\IeC {\'a}v\IeC {\v e}ry}{45}
\contentsline {section}{\numberline {9}Charakteristika a vypov\IeC {\'\i }dac\IeC {\'\i } schopnost ukazatel\IeC {\r u} rentability a aktivity. Du Pont\IeC {\r u}v rozklad rentability vlastn\IeC {\'\i }ho kapit\IeC {\'a}lu.}{46}
\contentsline {subsection}{\numberline {9.1}Ukazatele rentability - v\IeC {\'y}nostnost, ziskovost}{46}
\contentsline {subsubsection}{\numberline {9.1.1}Rentabilita aktiv (ROA)}{46}
\contentsline {subsubsection}{\numberline {9.1.2}Rentabilita Dlouhodob\IeC {\'y}ch zdroj\IeC {\r u} (ROCE)}{46}
\contentsline {subsubsection}{\numberline {9.1.3}Rentabilita Vlastn\IeC {\'\i }ho Kapit\IeC {\'a}lu - $ROE = \frac {EAT}{VK}$}{46}
\contentsline {subsubsection}{\numberline {9.1.4}Rentabilita tr\IeC {\v z}eb (ROS)}{47}
\contentsline {subsection}{\numberline {9.2}Du Pont\IeC {\r u}v rozklad ROE}{47}
\contentsline {subsection}{\numberline {9.3}Ukazatele Aktivity}{47}
\contentsline {subsubsection}{\numberline {9.3.1}Rychlost obratu aktiv (obr\IeC {\'a}tka)}{48}
\contentsline {subsubsection}{\numberline {9.3.2}Doba obratu aktiv}{48}
\contentsline {subsubsection}{\numberline {9.3.3}Rychlost obratu (RO) celkov\IeC {\'y}ch aktiv $= \frac {\text {tr\IeC {\v z}by}}{aktiva}$}{48}
\contentsline {subsubsection}{\numberline {9.3.4}Doba obratu z\IeC {\'a}sob $= \frac {\text {z\IeC {\'a}soby} \cdot 360}{S}$}{48}
\contentsline {subsubsection}{\numberline {9.3.5}Doba obratu pohled\IeC {\'a}vek $= \frac {\text {Pohled\IeC {\'a}vky} \cdot 360}{\text {Tr\IeC {\v z}by}}$}{48}
\contentsline {subsubsection}{\numberline {9.3.6}Doba obratu z\IeC {\'a}vazk\IeC {\r u} $= \frac {\text {Z\IeC {\'a}vazky} \cdot 360}{\text {tr\IeC {\v z}by}}$}{48}
\contentsline {section}{\numberline {10}Charakteristika platebn\IeC {\'\i } schopnosti podniku prost\IeC {\v r}ednictv\IeC {\'\i }m ukazatel\IeC {\r u} likvidity; likvidnost majetku podniku. Podstata a vymezen\IeC {\'\i } \IeC {\v c}ist\IeC {\'e}ho pracovn\IeC {\'\i }ho kapit\IeC {\'a}lu. Finan\IeC {\v c}n\IeC {\'\i } d\IeC {\r u}sledky uplat\IeC {\v n}ov\IeC {\'a}n\IeC {\'\i } r\IeC {\r u}zn\IeC {\'y}ch zp\IeC {\r u}sob\IeC {\r u} financov\IeC {\'a}n\IeC {\'\i } majetku podniku - um\IeC {\'\i }rn\IeC {\v e}n\IeC {\'y}, konzervativn\IeC {\'\i }, agresivn\IeC {\'\i }}{49}
\contentsline {subsection}{\numberline {10.1}Ukazatele likvidity}{49}
\contentsline {subsection}{\numberline {10.2}Pom\IeC {\v e}rov\IeC {\'e} ukazatele}{49}
\contentsline {subsubsection}{\numberline {10.2.1}Ukazatel celkov\IeC {\'e} likvidity $CL = \frac {OA}{CK_{KR}}$}{49}
\contentsline {subsubsection}{\numberline {10.2.2}Ukazatel pohotov\IeC {\'e} likvidity $PL = \frac {OA - \text {z\IeC {\'a}soby}}{CK_{KR}}$}{49}
\contentsline {subsubsection}{\numberline {10.2.3}Ukazatel okam\IeC {\v z}it\IeC {\'e} likvidity $OL = \frac {OA - \text {z\IeC {\'a}soby} - \text {pohled\IeC {\'a}vky}}{CK_{KR}} = \frac {KFM}{CK_{KR}}$}{49}
\contentsline {subsection}{\numberline {10.3}Likvidnost majetku podniku}{49}
\contentsline {subsection}{\numberline {10.4}Rozd\IeC {\'\i }lov\IeC {\'y} ukazatel $\rightarrow $ \IeC {\v C}ist\IeC {\'y} Pracovn\IeC {\'\i } Kapit\IeC {\'a}l}{49}
\contentsline {subsubsection}{\numberline {10.4.1}\IeC {\v C}PK z pohledu aktiv}{49}
\contentsline {subsubsection}{\numberline {10.4.2}\IeC {\v C}PK z pohledu pasiv}{50}
\contentsline {subsubsection}{\numberline {10.4.3}Mo\IeC {\v z}nosti financov\IeC {\'a}n\IeC {\'\i } majetku podniku a jeho finan\IeC {\v c}n\IeC {\'\i } d\IeC {\r u}sledky}{50}
\contentsline {section}{\numberline {11}\IeC {\v R}\IeC {\'\i }zen\IeC {\'\i } ob\IeC {\v e}\IeC {\v z}n\IeC {\'e}ho majetku (OM) - charakteristick\IeC {\'e} rysy ob\IeC {\v e}\IeC {\v z}n\IeC {\'e}ho majetku; provozn\IeC {\'\i } cyklus OM, hlediska \IeC {\v c}len\IeC {\v e}n\IeC {\'\i } OM, funkce OM. Podstata a stanoven\IeC {\'\i } kapit\IeC {\'a}lov\IeC {\'e} pot\IeC {\v r}eby v oblasti OM. p\IeC {\v r}\IeC {\'\i }\IeC {\v c}iny financov\IeC {\'a}n\IeC {\'\i } \IeC {\v c}\IeC {\'a}sti OM dlouhodob\IeC {\'y}mi zdroji (agresivn\IeC {\'\i }m zp\IeC {\r u}sobem)}{51}
\contentsline {subsection}{\numberline {11.1}\IeC {\v R}\IeC {\'\i }zen\IeC {\'\i } ob\IeC {\v e}\IeC {\v z}n\IeC {\'e}ho majetku}{51}
\contentsline {subsection}{\numberline {11.2}Provozn\IeC {\'\i } cyklus (kolob\IeC {\v e}h) OM}{51}
\contentsline {subsection}{\numberline {11.3}\IeC {\v C}len\IeC {\v e}n\IeC {\'\i } OM podle}{52}
\contentsline {subsection}{\numberline {11.4}Z\IeC {\'a}kladn\IeC {\'\i } hlediska vymezen\IeC {\'\i } OM}{52}
\contentsline {subsection}{\numberline {11.5}\IeC {\v R}\IeC {\'\i }zen\IeC {\'\i } OM}{53}
\contentsline {subsection}{\numberline {11.6}\IeC {\v R}\IeC {\'\i }zen\IeC {\'\i } celkov\IeC {\'e} pot\IeC {\v r}eby OM}{53}
\contentsline {section}{\numberline {12}\IeC {\v R}\IeC {\'\i }zen\IeC {\'\i } z\IeC {\'a}sob - podstata, metody \IeC {\v r}\IeC {\'\i }zen\IeC {\'\i } v\IeC {\'y}robn\IeC {\'\i }ch z\IeC {\'a}sob, nedokon\IeC {\v c}en\IeC {\'e} v\IeC {\'y}roby, hotov\IeC {\'y}ch v\IeC {\'y}robk\IeC {\r u}, optimaliza\IeC {\v c}n\IeC {\'\i } model \IeC {\v r}\IeC {\'\i }zen\IeC {\'\i } z\IeC {\'a}sob}{53}
\contentsline {subsection}{\numberline {12.1}\IeC {\v R}\IeC {\'\i }zen\IeC {\'\i } z\IeC {\'a}sob}{53}
\contentsline {subsection}{\numberline {12.2}Z\IeC {\'a}kladn\IeC {\'\i }m \IeC {\'u}kolem \IeC {\v r}\IeC {\'\i }zen\IeC {\'\i } z\IeC {\'a}sob je vy\IeC {\v r}e\IeC {\v s}en\IeC {\'\i }}{54}
\contentsline {subsection}{\numberline {12.3}\IeC {\v R}\IeC {\'\i }zen\IeC {\'\i } z\IeC {\'a}sob zahrnuje}{54}
\contentsline {subsection}{\numberline {12.4}Metody \IeC {\v r}\IeC {\'\i }zen\IeC {\'\i } z\IeC {\'a}sob}{54}
\contentsline {subsection}{\numberline {12.5}V\IeC {\'y}\IeC {\v s}e kapit\IeC {\'a}lu v\IeC {\'a}zan\IeC {\'e}ho ve v\IeC {\'y}robn\IeC {\'\i }ch z\IeC {\'a}sob\IeC {\'a}ch z\IeC {\'a}vis\IeC {\'\i } na}{54}
\contentsline {subsection}{\numberline {12.6}V\IeC {\'y}\IeC {\v s}e kapit\IeC {\'a}lu v\IeC {\'a}zan\IeC {\'e}ho v nedokon\IeC {\v c}en\IeC {\'e} v\IeC {\'y}rob\IeC {\v e} z\IeC {\'a}vis\IeC {\'\i } na}{55}
\contentsline {subsection}{\numberline {12.7}V\IeC {\'y}\IeC {\v s}e kapit\IeC {\'a}lu v\IeC {\'a}zan\IeC {\'e}ho v hotov\IeC {\'y}ch v\IeC {\'y}robc\IeC {\'\i }ch z\IeC {\'a}vis\IeC {\'\i } na}{55}
\contentsline {subsection}{\numberline {12.8}Celkov\IeC {\'e} n\IeC {\'a}klady spojen\IeC {\'e} s hospoda\IeC {\v r}en\IeC {\'\i }m se z\IeC {\'a}sobami}{56}
\contentsline {subsection}{\numberline {12.9}Optimaliza\IeC {\v c}n\IeC {\'\i } model \IeC {\v r}\IeC {\'\i }zen\IeC {\'\i } z\IeC {\'a}sob - Baumol\IeC {\r u}v model (1952)}{56}
\contentsline {subsubsection}{\numberline {12.9.1}Z\IeC {\'a}kladn\IeC {\'\i } p\IeC {\v r}edpoklady Baumolova modelu}{56}
\contentsline {subsection}{\numberline {12.10}Metoda ABC}{58}
\contentsline {subsubsection}{\numberline {12.10.1}Hlediska \IeC {\v c}len\IeC {\v e}n\IeC {\'\i } z\IeC {\'a}sob do skupin}{58}
\contentsline {subsection}{\numberline {12.11}Metoda JIT (Just In Time - pr\IeC {\'a}v\IeC {\v e} v\IeC {\v c}as)}{58}
\contentsline {section}{\numberline {13}\IeC {\v R}\IeC {\'\i }zen\IeC {\'\i } pohled\IeC {\'a}vek - podstate pohled\IeC {\'a}vek, struktura; faktory ovliv\IeC {\v n}uj\IeC {\'\i }c\IeC {\'\i } objem pohled\IeC {\'a}vek z obchodn\IeC {\'\i }ho styku.}{58}
\contentsline {subsection}{\numberline {13.1}\IeC {\v R}\IeC {\'\i }zen\IeC {\'\i } pohled\IeC {\'a}vek}{58}
\contentsline {subsubsection}{\numberline {13.1.1}\IeC {\v R}\IeC {\'\i }zen\IeC {\'\i } pohled\IeC {\'a}vek je zame\IeC {\v r}eno na}{58}
\contentsline {subsection}{\numberline {13.2}\IeC {\v R}\IeC {\'\i }zen\IeC {\'\i } pohled\IeC {\'a}vek}{59}
\contentsline {subsection}{\numberline {13.3}Z\IeC {\'a}kladn\IeC {\'\i } faktory ovliv\IeC {\v n}uj\IeC {\'\i }c\IeC {\'\i } objem pohled\IeC {\'a}vek z obhcodn\IeC {\'\i }ho styku}{59}
\contentsline {subsection}{\numberline {13.4}\IeC {\v R}\IeC {\'\i }zen\IeC {\'\i } pohled\IeC {\'a}vek zahrnuje}{60}
\contentsline {section}{\numberline {14}Kr\IeC {\'a}tkodob\IeC {\'y} finan\IeC {\v c}n\IeC {\'\i } majetek podniku, jeho struktura; p\IeC {\v r}\IeC {\'\i }\IeC {\v c}iny a motivy dr\IeC {\v z}by pen\IeC {\v e}z; metody a modely \IeC {\v r}izen\IeC {\'\i } pen\IeC {\v e}\IeC {\v z}n\IeC {\'\i }ch prost\IeC {\v r}edk\IeC {\r u}}{61}
\contentsline {subsection}{\numberline {14.1}\IeC {\v R}\IeC {\'\i }zen\IeC {\'\i } PP}{61}
\contentsline {subsection}{\numberline {14.2}P\IeC {\v r}\IeC {\'\i }\IeC {\v c}iny dr\IeC {\v z}by PP}{61}
\contentsline {subsection}{\numberline {14.3}Motivy dr\IeC {\v z}by pen\IeC {\v e}z}{61}
\contentsline {subsection}{\numberline {14.4}Metody \IeC {\v r}\IeC {\'\i }zen\IeC {\'\i } pen\IeC {\v e}\IeC {\v z}n\IeC {\'\i }ch prost\IeC {\v r}edk\IeC {\r u}}{62}
\contentsline {subsection}{\numberline {14.5}Modely \IeC {\v r}\IeC {\'\i }zen\IeC {\'\i } pen\IeC {\v e}\IeC {\v z}n\IeC {\'\i }ch prost\IeC {\v r}edk\IeC {\r u}}{62}
\contentsline {subsubsection}{\numberline {14.5.1}Baumol\IeC {\r u}m model \IeC {\v r}\IeC {\'\i }zen\IeC {\'\i } PP}{62}
\contentsline {subsubsection}{\numberline {14.5.2}Miller\IeC {\r u}v - Orr\IeC {\r u}v model}{63}
\contentsline {subsection}{\numberline {14.6}Cash Pooling}{63}
\contentsline {section}{\numberline {15}Zdroje kr\IeC {\'a}tkodob\IeC {\'e}ho financov\IeC {\'a}n\IeC {\'\i }, jejich \IeC {\v c}len\IeC {\v e}n\IeC {\'\i } a charakteristika jednotliv\IeC {\'y}ch druh\IeC {\r u} kr\IeC {\'a}tkodob\IeC {\'y}ch finan\IeC {\v c}n\IeC {\'\i }ch zdroj\IeC {\r u}}{64}
\contentsline {subsection}{\numberline {15.1}Zdroje a fromy kr\IeC {\'a}tkodob\IeC {\'e}ho financov\IeC {\'a}n\IeC {\'\i }}{64}
\contentsline {subsection}{\numberline {15.2}D\IeC {\r u}vody trval\IeC {\'e} v\IeC {\'y}\IeC {\v s}e OM}{64}
\contentsline {subsection}{\numberline {15.3}Zdroje kr\IeC {\'a}tkodob\IeC {\'e}ho financov\IeC {\'a}n\IeC {\'\i }}{65}
\contentsline {subsection}{\numberline {15.4}Nebankovn\IeC {\'\i } formy financov\IeC {\'a}n\IeC {\'\i } podnikov\IeC {\'y}ch pot\IeC {\v r}eb}{65}
\contentsline {subsubsection}{\numberline {15.4.1}Obchodn\IeC {\'\i } \IeC {\'u}v\IeC {\v e}r}{65}
\contentsline {subsubsection}{\numberline {15.4.2}Z\IeC {\'a}loha}{66}
\contentsline {subsection}{\numberline {15.5}Kr\IeC {\'a}tkodob\IeC {\'e} bankovn\IeC {\'\i } \IeC {\'u}v\IeC {\v e}ry}{67}
\contentsline {subsection}{\numberline {15.6}Sm\IeC {\v e}ne\IeC {\v c}n\IeC {\'e} \IeC {\'u}v\IeC {\v e}ry}{68}
\contentsline {subsubsection}{\numberline {15.6.1}Podstata sm\IeC {\v e}nky}{69}
\contentsline {subsubsection}{\numberline {15.6.2}Sm\IeC {\v e}ne\IeC {\v c}n\IeC {\'e} \IeC {\'u}v\IeC {\v e}ry}{69}
\contentsline {subsection}{\numberline {15.7}Druhy sm\IeC {\v e}ne\IeC {\v c}n\IeC {\'y}ch \IeC {\'u}v\IeC {\v e}r\IeC {\r u}}{69}
\contentsline {subsubsection}{\numberline {15.7.1}Eskontn\IeC {\'\i } \IeC {\'u}v\IeC {\v e}r}{69}
\contentsline {subsubsection}{\numberline {15.7.2}Negocia\IeC {\v c}n\IeC {\'\i } \IeC {\'u}v\IeC {\v e}r}{69}
\contentsline {subsubsection}{\numberline {15.7.3}Akcepta\IeC {\v c}n\IeC {\'\i } \IeC {\'u}v\IeC {\v e}r}{70}
\contentsline {subsubsection}{\numberline {15.7.4}Ramboursn\IeC {\'\i } \IeC {\'u}v\IeC {\v e}r}{70}
\contentsline {subsubsection}{\numberline {15.7.5}Avalov\IeC {\'y} \IeC {\'u}v\IeC {\v e}r}{70}
\contentsline {subsection}{\numberline {15.8}Ostatn\IeC {\'\i } zdroje kr\IeC {\'a}tkodob\IeC {\'e}ho financov\IeC {\'a}n\IeC {\'\i }}{71}
\contentsline {subsubsection}{\numberline {15.8.1}Ostatn\IeC {\'\i } nebankovn\IeC {\'\i } z\IeC {\'a}vazky}{71}
\contentsline {subsubsection}{\numberline {15.8.2}Financov\IeC {\'a}n\IeC {\'\i } kr\IeC {\'a}tkodob\IeC {\'y}ch pot\IeC {\v r}eb podniku p\IeC {\v r}em\IeC {\v e}nami majetku}{71}
\contentsline {subsubsection}{\numberline {15.8.3}Faktoring}{72}
\contentsline {section}{\numberline {16}Podstata a c\IeC {\'\i }le dlouhodob\IeC {\'e}ho financov\IeC {\'a}n\IeC {\'\i } podniku, zdroje dlouhodob\IeC {\'e}ho financov\IeC {\'a}n\IeC {\'\i }. Charakteristika intern\IeC {\'\i }ch zdroj\IeC {\r u} financov\IeC {\'a}n\IeC {\'\i }.}{72}
\contentsline {subsection}{\numberline {16.1}Podstata a c\IeC {\'\i }le dlouhodob\IeC {\'e}ho financov\IeC {\'a}n\IeC {\'\i } podniku}{72}
\contentsline {subsection}{\numberline {16.2}Hlavn\IeC {\'\i } zdroje dlouhodob\IeC {\'e}ho financov\IeC {\'a}n\IeC {\'\i }}{73}
\contentsline {subsection}{\numberline {16.3}intern\IeC {\'\i } zdroje financov\IeC {\'a}n\IeC {\'\i } - A) Odpisy}{73}
\contentsline {subsubsection}{\numberline {16.3.1}Faktory ovliv\IeC {\v n}uj\IeC {\'\i }c\IeC {\'\i } celkovou v\IeC {\'y}\IeC {\v s}i odpis\IeC {\r u}}{73}
\contentsline {subsubsection}{\numberline {16.3.2}Metody odepisov\IeC {\'a}n\IeC {\'\i }}{74}
\contentsline {subsubsection}{\numberline {16.3.3}Odpisov\IeC {\'a} politika v \IeC {\v C}R}{74}
\contentsline {subsection}{\numberline {16.4}Intern\IeC {\'\i } zdroje financov\IeC {\'a}n\IeC {\'\i } - B) Nerozd\IeC {\v e}len\IeC {\'y} zisk}{74}
\contentsline {subsubsection}{\numberline {16.4.1}Faktory ovliv\IeC {\v n}uj\IeC {\'\i }c\IeC {\'\i } velikost zisku}{74}
\contentsline {subsubsection}{\numberline {16.4.2}Dlouhodob\IeC {\'e} rezervy (fondy tvo\IeC {\v r}en\IeC {\'e} ze zisku, rezervy}{74}
\contentsline {subsubsection}{\numberline {16.4.3}Samofinancov\IeC {\'a}n\IeC {\'\i }}{75}
\contentsline {section}{\numberline {17}Extern\IeC {\'\i } zdroje financov\IeC {\'a}n\IeC {\'\i } podnikov\IeC {\'y}ch pot\IeC {\v r}eb - charakteristika jednotliv\IeC {\'y}ch zdroj\IeC {\r u}.}{75}
\contentsline {subsection}{\numberline {17.1}Extern\IeC {\'\i } zdroje financov\IeC {\'a}n\IeC {\'\i }}{75}
\contentsline {subsection}{\numberline {17.2}formy extern\IeC {\'\i }ch zdroj\IeC {\r u} financov\IeC {\'a}n\IeC {\'\i }}{76}
\contentsline {subsection}{\numberline {17.3}Akcie}{76}
\contentsline {subsubsection}{\numberline {17.3.1}Kmenov\IeC {\'a} akcie}{77}
\contentsline {subsubsection}{\numberline {17.3.2}Prioritn\IeC {\'\i } akcie}{77}
\contentsline {subsection}{\numberline {17.4}Dluhopisy (obligace)}{77}
\contentsline {subsubsection}{\numberline {17.4.1}Druhy dluhopis\IeC {\r u}}{77}
\contentsline {subsubsection}{\numberline {17.4.2}Charakteristick\IeC {\'e} rysy dluhopis\IeC {\r u}}{77}
\contentsline {subsection}{\numberline {17.5}Dlouhodob\IeC {\'e} \IeC {\'u}v\IeC {\v e}ry}{77}
\contentsline {subsubsection}{\numberline {17.5.1}Dlouhodob\IeC {\'e} bankovn\IeC {\'\i } \IeC {\'u}v\IeC {\v e}ry}{78}
\contentsline {subsection}{\numberline {17.6}Leasing}{78}
\contentsline {subsection}{\numberline {17.7}Typy leasingu}{78}
\contentsline {subsubsection}{\numberline {17.7.1}Provozn\IeC {\'\i } (operativn\IeC {\'\i }) leasing}{79}
\contentsline {subsubsection}{\numberline {17.7.2}Finan\IeC {\v c}n\IeC {\'\i } leasing}{79}
\contentsline {subsubsection}{\numberline {17.7.3}Leasingov\IeC {\'a} cena}{79}
\contentsline {subsubsection}{\numberline {17.7.4}Leasingov\IeC {\'y} koeficient}{79}
\contentsline {subsection}{\numberline {17.8}Forfaiting}{80}
\contentsline {subsubsection}{\numberline {17.8.1}Cena forfaitingu}{80}
\contentsline {subsection}{\numberline {17.9}Projektov\IeC {\'e} financov\IeC {\'a}n\IeC {\'\i }}{80}
\contentsline {subsubsection}{\numberline {17.9.1}Charakteristiky projektov\IeC {\'e}ho financov\IeC {\'a}n\IeC {\'\i }}{80}
\contentsline {section}{\numberline {18}Podstata \IeC {\v c}asov\IeC {\'e} hodnoty pen\IeC {\v e}z, uplatn\IeC {\v e}n\IeC {\'\i } ve finan\IeC {\v c}n\IeC {\'\i }m \IeC {\v r}\IeC {\'\i }zen\IeC {\'\i } a rozhodov\IeC {\'a}n\IeC {\'\i }. Z\IeC {\'a}kladn\IeC {\'\i } metody pro vyj\IeC {\'a}d\IeC {\v r}en\IeC {\'\i } faktoru \IeC {\v c}asu ve finan\IeC {\v c}n\IeC {\'\i }m rozhodov\IeC {\'a}n\IeC {\'\i } a jejich vyu\IeC {\v z}it\IeC {\'\i }}{81}
\contentsline {subsection}{\numberline {18.1}Podstata \IeC {\v c}asov\IeC {\'e} hodnoty pen\IeC {\v e}z ve finan\IeC {\v c}n\IeC {\'\i }m \IeC {\v r}\IeC {\'\i }zen\IeC {\'\i } a rozhodov\IeC {\'a}n\IeC {\'\i }}{81}
\contentsline {subsection}{\numberline {18.2}Z\IeC {\'a}kladn\IeC {\'\i } operace, p\IeC {\v r}i kter\IeC {\'y}ch se projevuje \IeC {\v c}asov\IeC {\'a} hodnota pen\IeC {\v e}z}{81}
\contentsline {subsection}{\numberline {18.3}Metody \IeC {\'u}ro\IeC {\v c}en\IeC {\'\i }}{81}
\contentsline {subsection}{\numberline {18.4}Metody \IeC {\'u}ro\IeC {\v c}en\IeC {\'\i } pro jednu platbu}{82}
\contentsline {subsubsection}{\numberline {18.4.1}Metody jednoduch\IeC {\'e}ho \IeC {\'u}ro\IeC {\v c}en\IeC {\'\i }}{82}
\contentsline {subsubsection}{\numberline {18.4.2}Metody slo\IeC {\v z}en\IeC {\'e}ho \IeC {\'u}ro\IeC {\v c}en\IeC {\'\i }}{82}
\contentsline {subsection}{\numberline {18.5}Metody \IeC {\'u}ro\IeC {\v c}en\IeC {\'\i } pro \IeC {\v r}adu plateb (CF)}{82}
\contentsline {subsubsection}{\numberline {18.5.1}Obecn\IeC {\'e} p\IeC {\v r}\IeC {\'\i }pady (platby v r\IeC {\r u}zn\IeC {\'e} v\IeC {\'y}\IeC {\v s}i)}{82}
\contentsline {subsubsection}{\numberline {18.5.2}Speci\IeC {\'a}ln\IeC {\'\i } p\IeC {\v r}\IeC {\'\i }pady (platby ve stejn\IeC {\'e} v\IeC {\'y}\IeC {\v s}i)}{82}
\contentsline {subsubsection}{\numberline {18.5.3}Vztah mezi re\IeC {\'a}lnou a nomin\IeC {\'a}ln\IeC {\'\i } \IeC {\'u}rokovou m\IeC {\'\i }rou}{83}
\contentsline {subsubsection}{\numberline {18.5.4}Efektivn\IeC {\'\i } \IeC {\'u}rokov\IeC {\'a} m\IeC {\'\i }ra (sazba)}{83}
\contentsline {section}{\numberline {19}Riziko, pojet\IeC {\'\i } a klasifikace podnikatelsk\IeC {\'e}ho rizika, ochrana proti riziku, vztah mezi rizikem a v\IeC {\'y}nosnost\IeC {\'\i }}{83}
\contentsline {subsection}{\numberline {19.1}Riziko vs. nejistota}{83}
\contentsline {subsection}{\numberline {19.2}Podnikatelsk\IeC {\'e} riziko}{83}
\contentsline {subsection}{\numberline {19.3}\IeC {\v C}len\IeC {\v e}n\IeC {\'\i } rizika}{83}
\contentsline {subsubsection}{\numberline {19.3.1}\IeC {\v C}len\IeC {\v e}n\IeC {\'\i } rizika podle z\IeC {\'a}vislosti (nez\IeC {\'a}vislosti) na \IeC {\v c}innosti podniku}{83}
\contentsline {subsubsection}{\numberline {19.3.2}\IeC {\v C}len\IeC {\v e}n\IeC {\'\i } rizika podle druhu \IeC {\v c}innosti podniku}{84}
\contentsline {subsubsection}{\numberline {19.3.3}\IeC {\v C}len\IeC {\v e}n\IeC {\'\i } rizika podle z\IeC {\'a}vislosti na celkov\IeC {\'e}m ekonomick\IeC {\'e}m v\IeC {\'y}voji}{84}
\contentsline {subsubsection}{\numberline {19.3.4}\IeC {\v C}len\IeC {\v e}n\IeC {\'\i } rizika podle mo\IeC {\v z}nosti ovlivn\IeC {\v e}n\IeC {\'\i } rizika}{84}
\contentsline {subsection}{\numberline {19.4}\IeC {\v R}\IeC {\'\i }zen\IeC {\'\i } rizika}{85}
\contentsline {subsection}{\numberline {19.5}Rizikov\IeC {\'a} politika zahrnuje}{85}
\contentsline {subsection}{\numberline {19.6}Zp\IeC {\r u}soby ochrany proti riziku}{85}
\contentsline {subsection}{\numberline {19.7}Vztah mezi rizikem a v\IeC {\'y}nosnost\IeC {\'\i }}{86}
\contentsline {subsubsection}{\numberline {19.7.1}Investi\IeC {\v c}n\IeC {\'\i } troj\IeC {\'u}heln\IeC {\'\i }k}{86}
\contentsline {subsection}{\numberline {19.8}Vztah mezi po\IeC {\v z}adovanou m\IeC {\'\i }rou v\IeC {\'y}nosnosti a rizikem}{86}
\contentsline {subsection}{\numberline {19.9}M\IeC {\v e}\IeC {\v r}en\IeC {\'\i } rizika}{87}
\contentsline {section}{\numberline {20}Charakteristika a obsah investi\IeC {\v c}n\IeC {\'\i }ho rozhodov\IeC {\'a}n\IeC {\'\i }. Parametry hodnocen\IeC {\'\i } investi\IeC {\v c}n\IeC {\'\i }ho projektu. Pen\IeC {\v e}\IeC {\v z}n\IeC {\'\i } toky z investice - charakteristika kapit\IeC {\'a}lov\IeC {\'y}ch v\IeC {\'y}daj\IeC {\r u} a pen\IeC {\v e}\IeC {\v z}n\IeC {\'\i }ch p\IeC {\v r}\IeC {\'\i }jm\IeC {\r u} z investice.}{87}
\contentsline {subsection}{\numberline {20.1}Kapit\IeC {\'a}lov\IeC {\'e} pl\IeC {\'a}nov\IeC {\'a}n\IeC {\'\i } a investi\IeC {\v c}n\IeC {\'\i } rozhodov\IeC {\'a}n\IeC {\'\i }}{87}
\contentsline {subsubsection}{\numberline {20.1.1}Specifika investi\IeC {\v c}n\IeC {\'\i }ho rozhodov\IeC {\'a}n\IeC {\'\i } a dlouhodob\IeC {\'e}ho financov\IeC {\'a}n\IeC {\'\i }}{87}
\contentsline {subsection}{\numberline {20.2}Investice}{87}
\contentsline {subsection}{\numberline {20.3}Kapit\IeC {\'a}lov\IeC {\'e} rozpo\IeC {\v c}etnictv\IeC {\'\i } - capital budgeting}{88}
\contentsline {subsection}{\numberline {20.4}Parametry hodnocen\IeC {\'\i } projektu}{88}
\contentsline {subsubsection}{\numberline {20.4.1}Pen\IeC {\v e}\IeC {\v z}n\IeC {\'\i } toky investice}{88}
\contentsline {subsubsection}{\numberline {20.4.2}Stanoven\IeC {\'\i } n\IeC {\'a}klad\IeC {\r u} kapit\IeC {\'a}lu}{89}
\contentsline {subsubsection}{\numberline {20.4.3}Doba \IeC {\v z}ivotnosti investice}{89}
\contentsline {subsubsection}{\numberline {20.4.4}\IeC {\v C}ist\IeC {\'a} sou\IeC {\v c}asn\IeC {\'a} hodnota}{89}
\contentsline {section}{\numberline {21}Statick\IeC {\'a} a dynamick\IeC {\'a} krit\IeC {\'e}ria hodnocen\IeC {\'\i } efektivnosti investic - charakteristika, v\IeC {\'y}po\IeC {\v c}et a rozhodovac\IeC {\'\i } krit\IeC {\'e}rium}{89}
\contentsline {subsection}{\numberline {21.1}Krit\IeC {\'e}ria pro hodnocen\IeC {\'\i } investic}{89}
\contentsline {subsubsection}{\numberline {21.1.1}Podle faktoru \IeC {\v c}asu}{89}
\contentsline {subsubsection}{\numberline {21.1.2}Podle pojet\IeC {\'\i } efektu z investic}{90}
\contentsline {subsection}{\numberline {21.2}Statick\IeC {\'a} krit\IeC {\'e}ria}{90}
\contentsline {subsubsection}{\numberline {21.2.1}Rentabilita investovan\IeC {\'e}ho kapit\IeC {\'a}lu}{90}
\contentsline {subsubsection}{\numberline {21.2.2}Prost\IeC {\'a} doba n\IeC {\'a}vratnosti (\IeC {\'u}hrady)}{90}
\contentsline {subsection}{\numberline {21.3}Dynamick\IeC {\'a} krit\IeC {\'e}ria}{90}
\contentsline {subsubsection}{\numberline {21.3.1}\IeC {\v C}ist\IeC {\'a} sou\IeC {\v c}asn\IeC {\'a} hodnota (NPV)}{90}
\contentsline {subsubsection}{\numberline {21.3.2}Index ziskovosti (Profitability index)}{91}
\contentsline {subsubsection}{\numberline {21.3.3}Vnit\IeC {\v r}n\IeC {\'\i } v\IeC {\'y}nosov\IeC {\'e} procento (IRR)}{91}
\contentsline {subsubsection}{\numberline {21.3.4}Diskontovan\IeC {\'a} doba n\IeC {\'a}vratnosti (d Payback Period}{91}
