\relax 
\catcode `"\active 
\catcode `-\active 
\select@language{czech}
\@writefile{toc}{\select@language{czech}}
\@writefile{lof}{\select@language{czech}}
\@writefile{lot}{\select@language{czech}}
\@writefile{toc}{\contentsline {section}{\numberline {1}\IeC {\'U}vod}{1}}
\@writefile{toc}{\contentsline {section}{\numberline {2}cvi\IeC {\v c}en\IeC {\'\i } 1}{1}}
\@writefile{toc}{\contentsline {subsection}{\numberline {2.1}P\IeC {\v r}\IeC {\'\i }klad 1}{1}}
\@writefile{toc}{\contentsline {subsection}{\numberline {2.2}P\IeC {\v r}\IeC {\'\i }klad 2}{2}}
\@writefile{toc}{\contentsline {subsection}{\numberline {2.3}\IeC {\'u}\IeC {\v c}et}{2}}
\@writefile{toc}{\contentsline {subsection}{\numberline {2.4}rozvahov\IeC {\'e} zm\IeC {\v e}ny}{3}}
\@writefile{toc}{\contentsline {subsection}{\numberline {2.5}p\IeC {\v r}\IeC {\'\i }klad}{3}}
