\relax 
\@writefile{toc}{\contentsline {section}{\numberline {1}\IeC {\'u}vod}{1}}
\@writefile{toc}{\contentsline {section}{\numberline {2}historie}{1}}
\@writefile{toc}{\contentsline {section}{\numberline {3}pr\IeC {\'a}vn\IeC {\'\i } r\IeC {\'a}mec \IeC {\'u}\IeC {\v c}etnictv\IeC {\'\i }}{1}}
\@writefile{toc}{\contentsline {section}{\numberline {4}kategorizace \IeC {\'u}\IeC {\v c}etn\IeC {\'\i }ch jednoteck od 1. 1. 2016}{1}}
\@writefile{toc}{\contentsline {section}{\numberline {5}veden\IeC {\'\i } \IeC {\'u}\IeC {\v c}etnictv\IeC {\'\i }}{2}}
\@writefile{toc}{\contentsline {subsection}{\numberline {5.1}kvalita veden\IeC {\'\i } \IeC {\'u}\IeC {\v c}etnictv\IeC {\'\i }}{2}}
\@writefile{toc}{\contentsline {section}{\numberline {6}v\IeC {\'y}znam \IeC {\'u}\IeC {\v c}etnictv\IeC {\'\i }}{2}}
\@writefile{toc}{\contentsline {section}{\numberline {7}funkce \IeC {\'u}\IeC {\v c}etnictv\IeC {\'\i }}{2}}
\@writefile{toc}{\contentsline {section}{\numberline {8}p\IeC {\v r}edm\IeC {\v e}t \IeC {\'u}\IeC {\v c}etnictv\IeC {\'\i }}{3}}
\@writefile{toc}{\contentsline {section}{\numberline {9}z\IeC {\'a}sady \IeC {\'u}\IeC {\v c}etnictv\IeC {\'\i }}{3}}
\@writefile{toc}{\contentsline {section}{\numberline {10}klasifikace majetk\IeC {\r u}, z\IeC {\'a}vazk\IeC {\r u} a vlastn\IeC {\'\i }ho kapit\IeC {\'a}lu}{3}}
\@writefile{toc}{\contentsline {section}{\numberline {11}oce\IeC {\v n}ov\IeC {\'a}nn\IeC {\'\i } majetku}{4}}
\@writefile{toc}{\contentsline {section}{\numberline {12}rozvaha}{4}}
\@writefile{toc}{\contentsline {subsection}{\numberline {12.1}funkce}{4}}
\@writefile{toc}{\contentsline {subsection}{\numberline {12.2}vliv hospod\IeC {\'a}\IeC {\v r}sk\IeC {\'y}ch operac\IeC {\'\i } na rozvahu}{4}}
\@writefile{toc}{\contentsline {section}{\numberline {13}metodick\IeC {\'y} prvek \IeC {\'u}\IeC {\v c}etnictv\IeC {\'\i } - \IeC {\'u}\IeC {\v c}et}{4}}
\@writefile{toc}{\contentsline {section}{\numberline {14}kolob\IeC {\v e}h majetku}{5}}
\@writefile{toc}{\contentsline {section}{\numberline {15}charakteristika n\IeC {\'a}klad\IeC {\r u} a v\IeC {\'y}nos\IeC {\r u}}{5}}
\@writefile{toc}{\contentsline {subsection}{\numberline {15.1}n\IeC {\'a}klady}{5}}
\@writefile{toc}{\contentsline {subsection}{\numberline {15.2}v\IeC {\'y}nosy}{5}}
