\relax 
\@writefile{toc}{\contentsline {section}{\numberline {1}\IeC {\'U}\IeC {\v c}elov\IeC {\'e} \IeC {\v c}len\IeC {\v e}n\IeC {\'\i } n\IeC {\'a}klad\IeC {\r u}}{1}}
\@writefile{toc}{\contentsline {subsection}{\numberline {1.1}Dle vztahu k procesu, \IeC {\v c}innostem a aktivit\IeC {\'a}m}{1}}
\@writefile{toc}{\contentsline {subsubsection}{\numberline {1.1.1}Technologick\IeC {\'e} n\IeC {\'a}klady}{1}}
\@writefile{toc}{\contentsline {subsubsection}{\numberline {1.1.2}jednicov\IeC {\'y} n\IeC {\'a}klad}{1}}
