\relax 
\@writefile{toc}{\contentsline {section}{\numberline {1}\IeC {\'u}vod}{1}}
\@writefile{toc}{\contentsline {section}{\numberline {2}Teorie N\IeC {\'a}klad\IeC {\r u}}{1}}
\@writefile{toc}{\contentsline {subsection}{\numberline {2.1}v\IeC {\'y}daje}{1}}
\@writefile{toc}{\contentsline {subsection}{\numberline {2.2}n\IeC {\'a}klady}{2}}
