\relax 
\catcode `"\active 
\catcode `-\active 
\babel@aux{czech}{}
\@writefile{toc}{\contentsline {section}{\numberline {1}grafick\IeC {\'e} zn\IeC {\'a}zorn\IeC {\v e}n\IeC {\'\i } zm\IeC {\v e}n}{2}}
\@writefile{toc}{\contentsline {subsection}{\numberline {1.1}Posun PVO}{2}}
\@writefile{toc}{\contentsline {subsection}{\numberline {1.2}Zm\IeC {\v e}na sklonu PVO}{3}}
\@writefile{toc}{\contentsline {subsection}{\numberline {1.3}Zm\IeC {\v e}na sklonu \IeC {\'U}F}{3}}
\@writefile{toc}{\contentsline {section}{\numberline {2}P\IeC {\v r}eveden\IeC {\'\i } na du\IeC {\'a}ln\IeC {\'\i } model}{4}}
\@writefile{toc}{\contentsline {subsection}{\numberline {2.1}Du\IeC {\'a}ln\IeC {\'\i } prom\IeC {\v e}nn\IeC {\'a}}{5}}
\@writefile{toc}{\contentsline {subsection}{\numberline {2.2}P\IeC {\v r}\IeC {\'\i }datn\IeC {\'a} prom\IeC {\v e}nn\IeC {\'a} du\IeC {\'a}ln\IeC {\'\i }ho modelu}{5}}
\@writefile{toc}{\contentsline {section}{\numberline {3}Slab\IeC {\'a} v\IeC {\v e}ta o dualit\IeC {\v e}}{5}}
\@writefile{toc}{\contentsline {section}{\numberline {4}Siln\IeC {\'a} v\IeC {\v e}ta o dualit\IeC {\v e}}{5}}
\@writefile{toc}{\contentsline {section}{\numberline {5}Symetrie/soum\IeC {\v e}rnost du\IeC {\'a}ln\IeC {\v e} sdru\IeC {\v z}en\IeC {\'y}ch model\IeC {\r u}}{5}}
\@writefile{toc}{\contentsline {subsection}{\numberline {5.1}Symetrick\IeC {\'e} modely}{5}}
\@writefile{toc}{\contentsline {subsection}{\numberline {5.2}Asymetrick\IeC {\'e} modely}{6}}
\@writefile{toc}{\contentsline {subsubsection}{\numberline {5.2.1}P\IeC {\v r}evoditeln\IeC {\'e} modely}{6}}
\@writefile{toc}{\contentsline {subsubsection}{\numberline {5.2.2}Nep\IeC {\v r}evoditeln\IeC {\'e} modely}{6}}
\@writefile{toc}{\contentsline {section}{\numberline {6}Prom\IeC {\v e}nn\IeC {\'e} du\IeC {\'a}ln\IeC {\'\i }ho modelu v simplexov\IeC {\'e} tabulce}{6}}
