\relax 
\catcode `"\active 
\catcode `-\active 
\babel@aux{czech}{}
\@writefile{toc}{\contentsline {section}{\numberline {1}\IeC {\'U}vod}{1}\protected@file@percent }
\@writefile{toc}{\contentsline {subsection}{\numberline {1.1}Literatura}{1}\protected@file@percent }
\@writefile{toc}{\contentsline {subsection}{\numberline {1.2}Podm\IeC {\'\i }nky ukon\IeC {\v c}en\IeC {\'\i } p\IeC {\v r}edm\IeC {\v e}tu}{1}\protected@file@percent }
\@writefile{toc}{\contentsline {subsection}{\numberline {1.3}Prezentace}{1}\protected@file@percent }
\@writefile{toc}{\contentsline {subsection}{\numberline {1.4}}{1}\protected@file@percent }
\@writefile{toc}{\contentsline {section}{\numberline {2}Z\IeC {\'a}kladn\IeC {\'\i } pojmy, funkce a \IeC {\v c}len\IeC {\v e}n\IeC {\'\i } managementu}{1}\protected@file@percent }
\@writefile{toc}{\contentsline {section}{\numberline {3}Definice managementu}{1}\protected@file@percent }
\@writefile{toc}{\contentsline {subsection}{\numberline {3.1}V\IeC {\'y}znam pojmu management}{2}\protected@file@percent }
\@writefile{toc}{\contentsline {section}{\numberline {4}Kdo je mana\IeC {\v z}er}{2}\protected@file@percent }
\@writefile{toc}{\contentsline {subsection}{\numberline {4.1}Posl\IeC {\'a}n\IeC {\'\i } mana\IeC {\v z}era}{2}\protected@file@percent }
\@writefile{toc}{\contentsline {subsection}{\numberline {4.2}\IeC {\v C}innosti mana\IeC {\v z}era}{2}\protected@file@percent }
\@writefile{toc}{\contentsline {section}{\numberline {5}Sekven\IeC {\v c}n\IeC {\'\i } mana\IeC {\v z}ersk\IeC {\'e} funkce}{3}\protected@file@percent }
\@writefile{toc}{\contentsline {subsubsection}{\numberline {5.0.1}Oblasti mana\IeC {\v z}erovy pr\IeC {\'a}ce}{3}\protected@file@percent }
\@writefile{toc}{\contentsline {subsection}{\numberline {5.1}Pl\IeC {\'a}nov\IeC {\'a}n\IeC {\'\i }}{3}\protected@file@percent }
\@writefile{toc}{\contentsline {subsection}{\numberline {5.2}Organizov\IeC {\'a}n\IeC {\'\i }}{4}\protected@file@percent }
\@writefile{toc}{\contentsline {subsection}{\numberline {5.3}Veden\IeC {\'\i }}{4}\protected@file@percent }
\@writefile{toc}{\contentsline {subsection}{\numberline {5.4}Kontrola}{4}\protected@file@percent }
\@writefile{toc}{\contentsline {subsubsection}{\numberline {5.4.1}Pr\IeC {\r u}b\IeC {\v e}\IeC {\v z}n\IeC {\'e} kontroly}{4}\protected@file@percent }
\@writefile{toc}{\contentsline {subsection}{\numberline {5.5}Rozhodov\IeC {\'a}n\IeC {\'\i }}{5}\protected@file@percent }
\@writefile{toc}{\contentsline {subsubsection}{\numberline {5.5.1}Klasifikace rozhodovac\IeC {\'\i }ch situac\IeC {\'\i }}{5}\protected@file@percent }
\@writefile{toc}{\contentsline {subsection}{\numberline {5.6}Vrcholov\IeC {\'y} mana\IeC {\v z}er}{5}\protected@file@percent }
\@writefile{toc}{\contentsline {subsection}{\numberline {5.7}St\IeC {\v r}edn\IeC {\'\i } mana\IeC {\v z}er}{5}\protected@file@percent }
\@writefile{toc}{\contentsline {subsection}{\numberline {5.8}Liniov\IeC {\'y} mana\IeC {\v z}er}{5}\protected@file@percent }
\@writefile{toc}{\contentsline {subsection}{\numberline {5.9}Moc, autorita a pravomoc mana\IeC {\v z}era}{5}\protected@file@percent }
\@writefile{toc}{\contentsline {subsection}{\numberline {5.10}Role mana\IeC {\v z}era}{6}\protected@file@percent }
\@writefile{toc}{\contentsline {subsubsection}{\numberline {5.10.1}Interperson\IeC {\'a}ln\IeC {\'\i } role}{6}\protected@file@percent }
\@writefile{toc}{\contentsline {subsubsection}{\numberline {5.10.2}Rozhodovac\IeC {\'\i } role}{6}\protected@file@percent }
\@writefile{toc}{\contentsline {subsection}{\numberline {5.11}Informa\IeC {\v c}n\IeC {\'\i } role}{6}\protected@file@percent }
\@writefile{toc}{\contentsline {subsection}{\numberline {5.12}Administrativn\IeC {\'\i } role}{6}\protected@file@percent }
\@writefile{toc}{\contentsline {subsection}{\numberline {5.13}Osobnost mana\IeC {\v z}era}{7}\protected@file@percent }
\@writefile{toc}{\contentsline {subsection}{\numberline {5.14}Znalosti mana\IeC {\v z}era}{7}\protected@file@percent }
\@writefile{toc}{\contentsline {subsection}{\numberline {5.15}Dovednosti mana\IeC {\v z}era}{7}\protected@file@percent }
\@writefile{toc}{\contentsline {subsection}{\numberline {5.16}Vlastnosti mana\IeC {\v z}era}{7}\protected@file@percent }
\@writefile{toc}{\contentsline {subsection}{\numberline {5.17}Stres}{8}\protected@file@percent }
