# Fdb version 3
["pdflatex"] 1550832571 "/home/archflow/MEGA/zapisky/semestr_4/management/prednasky/prednasky.tex" "/home/archflow/MEGA/zapisky/semestr_4/management/prednasky/prednasky.pdf" "prednasky" 1550832571
  "/home/archflow/MEGA/zapisky/semestr_4/management/prednasky/prednasky.aux" 1550832571 4317 88d0a5ecc4b320e9603fa42df16f08b8 ""
  "/home/archflow/MEGA/zapisky/semestr_4/management/prednasky/prednasky.tex" 1550832570 11254 04e532ccf0f827a9d0d6bbc4ede63747 ""
  "/usr/share/texmf-dist/fonts/enc/dvips/cm-super/cm-super-t1.enc" 1550406775 2971 def0b6c1f0b107b3b936def894055589 ""
  "/usr/share/texmf-dist/fonts/map/fontname/texfonts.map" 1550406775 3332 103109f5612ad95229751940c61aada0 ""
  "/usr/share/texmf-dist/fonts/tfm/jknappen/ec/ecbx1000.tfm" 1550406775 3584 2d666ecf6d466d8b007246bc2f94d9da ""
  "/usr/share/texmf-dist/fonts/tfm/jknappen/ec/ecbx1200.tfm" 1550406775 3584 402da0b29eafbad07963b1224b222f18 ""
  "/usr/share/texmf-dist/fonts/tfm/jknappen/ec/ecbx1440.tfm" 1550406775 3584 13049b61b922a28b158a38aeff75ee9b ""
  "/usr/share/texmf-dist/fonts/tfm/jknappen/ec/ecrm1000.tfm" 1550406775 3584 adb004a0c8e7c46ee66cad73671f37b4 ""
  "/usr/share/texmf-dist/fonts/tfm/jknappen/ec/ecrm1200.tfm" 1550406775 3584 f80ddd985bd00e29e9a6047ebd9d4781 ""
  "/usr/share/texmf-dist/fonts/tfm/jknappen/ec/ecrm1440.tfm" 1550406775 3584 3169d30142b88a27d4ab0e3468e963a2 ""
  "/usr/share/texmf-dist/fonts/tfm/jknappen/ec/ecrm1728.tfm" 1550406775 3584 3c76ccb63eda935a68ba65ba9da29f1a ""
  "/usr/share/texmf-dist/fonts/tfm/jknappen/ec/ecti1000.tfm" 1550406775 3072 3bce340d4c075dffe6d4ec732b4c32fe ""
  "/usr/share/texmf-dist/fonts/tfm/public/amsfonts/cmextra/cmex7.tfm" 1550406775 1004 54797486969f23fa377b128694d548df ""
  "/usr/share/texmf-dist/fonts/tfm/public/amsfonts/cmextra/cmex8.tfm" 1550406775 988 bdf658c3bfc2d96d3c8b02cfc1c94c20 ""
  "/usr/share/texmf-dist/fonts/tfm/public/cm/cmex10.tfm" 1550406775 992 662f679a0b3d2d53c1b94050fdaa3f50 ""
  "/usr/share/texmf-dist/fonts/tfm/public/cm/cmmi12.tfm" 1550406775 1524 4414a8315f39513458b80dfc63bff03a ""
  "/usr/share/texmf-dist/fonts/tfm/public/cm/cmmi6.tfm" 1550406775 1512 f21f83efb36853c0b70002322c1ab3ad ""
  "/usr/share/texmf-dist/fonts/tfm/public/cm/cmmi8.tfm" 1550406775 1520 eccf95517727cb11801f4f1aee3a21b4 ""
  "/usr/share/texmf-dist/fonts/tfm/public/cm/cmr12.tfm" 1550406775 1288 655e228510b4c2a1abe905c368440826 ""
  "/usr/share/texmf-dist/fonts/tfm/public/cm/cmr6.tfm" 1550406775 1300 b62933e007d01cfd073f79b963c01526 ""
  "/usr/share/texmf-dist/fonts/tfm/public/cm/cmr8.tfm" 1550406775 1292 21c1c5bfeaebccffdb478fd231a0997d ""
  "/usr/share/texmf-dist/fonts/tfm/public/cm/cmsy10.tfm" 1550406775 1124 6c73e740cf17375f03eec0ee63599741 ""
  "/usr/share/texmf-dist/fonts/tfm/public/cm/cmsy6.tfm" 1550406775 1116 933a60c408fc0a863a92debe84b2d294 ""
  "/usr/share/texmf-dist/fonts/tfm/public/cm/cmsy8.tfm" 1550406775 1120 8b7d695260f3cff42e636090a8002094 ""
  "/usr/share/texmf-dist/fonts/type1/public/amsfonts/cm/cmr10.pfb" 1550406775 35752 024fb6c41858982481f6968b5fc26508 ""
  "/usr/share/texmf-dist/fonts/type1/public/amsfonts/cm/cmsy10.pfb" 1550406775 32569 5e5ddc8df908dea60932f3c484a54c0d ""
  "/usr/share/texmf-dist/fonts/type1/public/cm-super/sfbx1000.pfb" 1550406775 145408 43d44302ca7d82d487f511f83e309505 ""
  "/usr/share/texmf-dist/fonts/type1/public/cm-super/sfbx1200.pfb" 1550406775 140176 d4962f948b4cc0adf4d3dde77a128c95 ""
  "/usr/share/texmf-dist/fonts/type1/public/cm-super/sfbx1440.pfb" 1550406775 135942 859a90cad7494a1e79c94baf546d7de5 ""
  "/usr/share/texmf-dist/fonts/type1/public/cm-super/sfrm1000.pfb" 1550406775 138258 6525c253f16cededa14c7fd0da7f67b2 ""
  "/usr/share/texmf-dist/fonts/type1/public/cm-super/sfrm1200.pfb" 1550406775 136101 f533469f523533d38317ab5729d00c8a ""
  "/usr/share/texmf-dist/fonts/type1/public/cm-super/sfrm1728.pfb" 1550406775 131438 3aa300b3e40e5c8ba7b4e5c6cebc5dd6 ""
  "/usr/share/texmf-dist/fonts/type1/public/cm-super/sfti1000.pfb" 1550406775 186554 e8f0fa8ca05e038f257a06405232745f ""
  "/usr/share/texmf-dist/tex/context/base/mkii/supp-pdf.mkii" 1550406775 71627 94eb9990bed73c364d7f53f960cc8c5b ""
  "/usr/share/texmf-dist/tex/generic/babel-czech/czech.ldf" 1550406775 15910 20b36fee6c6cdcfa90232891da7a9f34 ""
  "/usr/share/texmf-dist/tex/generic/babel/babel.def" 1550406775 74097 730193adbb112990f38051a05f35ac11 ""
  "/usr/share/texmf-dist/tex/generic/babel/babel.sty" 1550406775 16329 4c42e43c85185e6cb0936a628ade375c ""
  "/usr/share/texmf-dist/tex/generic/babel/switch.def" 1550406775 13310 fcb0ad08386d450f0c718feed9fe2fee ""
  "/usr/share/texmf-dist/tex/generic/babel/txtbabel.def" 1550406775 7435 6c566fc19b3503b2b2da8bb4550f2b58 ""
  "/usr/share/texmf-dist/tex/generic/oberdiek/etexcmds.sty" 1550406775 7612 729a8cc22a1ee0029997c7f74717ae05 ""
  "/usr/share/texmf-dist/tex/generic/oberdiek/ifluatex.sty" 1550406775 7324 2310d1247db0114eb4726807c8837a0e ""
  "/usr/share/texmf-dist/tex/generic/oberdiek/ifpdf.sty" 1550406775 1300 96620a7d94bc0ceb261d968770ce8315 ""
  "/usr/share/texmf-dist/tex/generic/oberdiek/infwarerr.sty" 1550406775 8253 473e0e41f9adadb1977e8631b8f72ea6 ""
  "/usr/share/texmf-dist/tex/generic/oberdiek/kvdefinekeys.sty" 1550406775 5152 b67a3a964ad9851e095110c854a1d461 ""
  "/usr/share/texmf-dist/tex/generic/oberdiek/kvsetkeys.sty" 1550406775 14040 ac8866aac45982ac84021584b0abb252 ""
  "/usr/share/texmf-dist/tex/generic/oberdiek/ltxcmds.sty" 1550406775 18425 5b3c0c59d76fac78978b5558e83c1f36 ""
  "/usr/share/texmf-dist/tex/generic/oberdiek/pdftexcmds.sty" 1550406775 20457 0d2e642faacbb41c9d72690f8cc529cd ""
  "/usr/share/texmf-dist/tex/latex/amsmath/amsbsy.sty" 1550406775 2211 ca7ce284ab93c8eecdc6029dc5ccbd73 ""
  "/usr/share/texmf-dist/tex/latex/amsmath/amsgen.sty" 1550406775 4161 7f6eb9092061a11f87d08ed13515b48d ""
  "/usr/share/texmf-dist/tex/latex/amsmath/amsmath.sty" 1550406775 85093 77cfa18ddbae4d9b74ade33d843686d3 ""
  "/usr/share/texmf-dist/tex/latex/amsmath/amsopn.sty" 1550406775 4116 32e6abd27229755a83a8b7f18e583890 ""
  "/usr/share/texmf-dist/tex/latex/amsmath/amstext.sty" 1550406775 2432 8ff93b1137020e8f21930562a874ae66 ""
  "/usr/share/texmf-dist/tex/latex/base/article.cls" 1550406775 19933 3097d1b31d3c45dc957096f554529032 ""
  "/usr/share/texmf-dist/tex/latex/base/fontenc.sty" 1550406775 4573 e9e01f5b11821a77b916dad378cb86b8 ""
  "/usr/share/texmf-dist/tex/latex/base/inputenc.sty" 1550406775 5052 b64c57f4a38aae0d2745f8298fa50814 ""
  "/usr/share/texmf-dist/tex/latex/base/omscmr.fd" 1550406775 2472 aa08940f0a4dc6c24ae9f943b04ae0b9 ""
  "/usr/share/texmf-dist/tex/latex/base/size10.clo" 1550406775 8294 6d6e23d5169c0d89d173f6c7e08a005a ""
  "/usr/share/texmf-dist/tex/latex/base/t1enc.def" 1550406775 10689 ce0f2353f9a1f42b29f591f3fe8e040a ""
  "/usr/share/texmf-dist/tex/latex/graphics-cfg/graphics.cfg" 1550406775 1224 978390e9c2234eab29404bc21b268d1e ""
  "/usr/share/texmf-dist/tex/latex/graphics-def/pdftex.def" 1550406775 17334 520b9b85ad8a2a48eda3f643e27a5179 ""
  "/usr/share/texmf-dist/tex/latex/graphics/graphics.sty" 1550406775 15272 5a97061616e0c8b2aa79c6615ff769f4 ""
  "/usr/share/texmf-dist/tex/latex/graphics/graphicx.sty" 1550406775 9063 d0a305975932762117cd1f06a582f896 ""
  "/usr/share/texmf-dist/tex/latex/graphics/keyval.sty" 1550406775 2591 6404d0c7d28505fb38ce0d86c2e28ae7 ""
  "/usr/share/texmf-dist/tex/latex/graphics/trig.sty" 1550406775 3977 cb9221976ed8a183afad65b59aa8629a ""
  "/usr/share/texmf-dist/tex/latex/latexconfig/epstopdf-sys.cfg" 1550406775 678 4792914a8f45be57bb98413425e4c7af ""
  "/usr/share/texmf-dist/tex/latex/mathtools/mathtools.sty" 1550406775 53430 0411f0481da6078e76fd7de46531d2e0 ""
  "/usr/share/texmf-dist/tex/latex/mathtools/mhsetup.sty" 1550406775 5317 cf75154a8a7e6436f05a5be497f0b05e ""
  "/usr/share/texmf-dist/tex/latex/oberdiek/epstopdf-base.sty" 1550406775 12095 5337833c991d80788a43d3ce26bd1c46 ""
  "/usr/share/texmf-dist/tex/latex/oberdiek/grfext.sty" 1550406775 7075 2fe3d848bba95f139de11ded085e74aa ""
  "/usr/share/texmf-dist/tex/latex/oberdiek/kvoptions.sty" 1550406775 22417 1d9df1eb66848aa31b18a593099cf45c ""
  "/usr/share/texmf-dist/tex/latex/tools/calc.sty" 1550406775 10212 357072c1d20578a30d6387d8a22e72ab ""
  "/usr/share/texmf-dist/web2c/texmf.cnf" 1550406775 33301 a3134070eacafb10b1f371612ce2650d ""
  "/var/lib/texmf/fonts/map/pdftex/updmap/pdftex.map" 1550665772 3106252 d5255ed7fd6ec6ea7699581e9a54cb46 ""
  "/var/lib/texmf/web2c/pdftex/pdflatex.fmt" 1550665757 7919196 25c0ec869d2281176d05908da4f2f799 ""
  "prednasky.aux" 1550832571 4317 88d0a5ecc4b320e9603fa42df16f08b8 ""
  "prednasky.tex" 1550832570 11254 04e532ccf0f827a9d0d6bbc4ede63747 ""
  (generated)
  "/home/archflow/MEGA/zapisky/semestr_4/management/prednasky/prednasky.pdf"
  "prednasky.log"
  "/home/archflow/MEGA/zapisky/semestr_4/management/prednasky/prednasky.log"
  "prednasky.pdf"
  "prednasky.aux"
