\relax 
\catcode `"\active 
\catcode `-\active 
\babel@aux{czech}{}
\@writefile{toc}{\contentsline {section}{\numberline {1}\IeC {\'U}vod}{1}}
\@writefile{toc}{\contentsline {section}{\numberline {2}Co je sv\IeC {\v e}tov\IeC {\'a} ekonomika}{1}}
\@writefile{toc}{\contentsline {subsection}{\numberline {2.1}Subjekty sv\IeC {\v e}tov\IeC {\'e}ho hospod\IeC {\'a}\IeC {\v r}stv\IeC {\'\i }}{1}}
\@writefile{toc}{\contentsline {subsubsection}{\numberline {2.1.1}St\IeC {\'a}t}{2}}
\@writefile{toc}{\contentsline {subsubsection}{\numberline {2.1.2}Mezin\IeC {\'a}rodn\IeC {\'\i } instituce}{2}}
\@writefile{toc}{\contentsline {subsubsection}{\numberline {2.1.3}Transnacion\IeC {\'a}ln\IeC {\'\i } korporace}{2}}
\@writefile{toc}{\contentsline {section}{\numberline {3}Rozjov sv\IeC {\v e}tov\IeC {\'e} ekonomiky}{2}}
\@writefile{toc}{\contentsline {subsubsection}{\numberline {3.0.1}Obdob\IeC {\'\i } 19. a 19. stol. do 1. sv. v\IeC {\'a}lky}{2}}
\@writefile{toc}{\contentsline {subsubsection}{\numberline {3.0.2}Pov\IeC {\'a}le\IeC {\v c}n\IeC {\'y} v\IeC {\'y}voj}{3}}
\@writefile{toc}{\contentsline {subsubsection}{\numberline {3.0.3}Nov\IeC {\'a} etapa v\IeC {\'y}voje (90. l\IeC {\'e}ta)}{4}}
\@writefile{toc}{\contentsline {section}{\numberline {4}Diferenciace soudob\IeC {\'e} ekonomiky}{4}}
\@writefile{toc}{\contentsline {section}{\numberline {5}Budouc\IeC {\'\i } v\IeC {\'y}voj sv\IeC {\v e}tov\IeC {\'e}ho hospod\IeC {\'a}\IeC {\v r}stv\IeC {\'\i }}{4}}
