PWD /home/archflow/MEGA/zapisky/semestr_4/analyza_casovych_rad
INPUT /usr/share/texmf-dist/web2c/texmf.cnf
INPUT /var/lib/texmf/web2c/pdftex/pdflatex.fmt
INPUT /home/archflow/MEGA/zapisky/semestr_4/analyza_casovych_rad/prednasky.tex
OUTPUT /home/archflow/MEGA/zapisky/semestr_4/analyza_casovych_rad/prednasky.log
INPUT /usr/share/texmf-dist/tex/latex/base/article.cls
INPUT /usr/share/texmf-dist/tex/latex/base/article.cls
INPUT /usr/share/texmf-dist/tex/latex/base/size10.clo
INPUT /usr/share/texmf-dist/tex/latex/base/size10.clo
INPUT /usr/share/texmf-dist/tex/latex/base/inputenc.sty
INPUT /usr/share/texmf-dist/tex/latex/base/inputenc.sty
INPUT /usr/share/texmf-dist/tex/latex/base/fontenc.sty
INPUT /usr/share/texmf-dist/tex/latex/base/fontenc.sty
INPUT /usr/share/texmf-dist/tex/latex/base/t1enc.def
INPUT /usr/share/texmf-dist/tex/latex/base/t1enc.def
INPUT /usr/share/texmf-dist/fonts/map/fontname/texfonts.map
INPUT /usr/share/texmf-dist/fonts/tfm/jknappen/ec/ecrm1000.tfm
INPUT /usr/share/texmf-dist/tex/generic/babel/babel.sty
INPUT /usr/share/texmf-dist/tex/generic/babel/babel.sty
INPUT /usr/share/texmf-dist/tex/generic/babel/switch.def
INPUT /usr/share/texmf-dist/tex/generic/babel-czech/czech.ldf
INPUT /usr/share/texmf-dist/tex/generic/babel-czech/czech.ldf
INPUT /usr/share/texmf-dist/tex/generic/babel/babel.def
INPUT /usr/share/texmf-dist/tex/generic/babel/txtbabel.def
INPUT /usr/share/texmf-dist/tex/latex/mathtools/mathtools.sty
INPUT /usr/share/texmf-dist/tex/latex/mathtools/mathtools.sty
INPUT /usr/share/texmf-dist/tex/latex/graphics/keyval.sty
INPUT /usr/share/texmf-dist/tex/latex/graphics/keyval.sty
INPUT /usr/share/texmf-dist/tex/latex/tools/calc.sty
INPUT /usr/share/texmf-dist/tex/latex/tools/calc.sty
INPUT /usr/share/texmf-dist/tex/latex/mathtools/mhsetup.sty
INPUT /usr/share/texmf-dist/tex/latex/mathtools/mhsetup.sty
INPUT /usr/share/texmf-dist/tex/latex/amsmath/amsmath.sty
INPUT /usr/share/texmf-dist/tex/latex/amsmath/amsmath.sty
INPUT /usr/share/texmf-dist/tex/latex/amsmath/amstext.sty
INPUT /usr/share/texmf-dist/tex/latex/amsmath/amstext.sty
INPUT /usr/share/texmf-dist/tex/latex/amsmath/amsgen.sty
INPUT /usr/share/texmf-dist/tex/latex/amsmath/amsgen.sty
INPUT /usr/share/texmf-dist/tex/latex/amsmath/amsbsy.sty
INPUT /usr/share/texmf-dist/tex/latex/amsmath/amsbsy.sty
INPUT /usr/share/texmf-dist/tex/latex/amsmath/amsopn.sty
INPUT /usr/share/texmf-dist/tex/latex/amsmath/amsopn.sty
INPUT /home/archflow/MEGA/zapisky/semestr_4/analyza_casovych_rad/prednasky.aux
INPUT /home/archflow/MEGA/zapisky/semestr_4/analyza_casovych_rad/prednasky.aux
OUTPUT /home/archflow/MEGA/zapisky/semestr_4/analyza_casovych_rad/prednasky.aux
INPUT /usr/share/texmf-dist/tex/latex/graphics/graphicx.sty
INPUT /usr/share/texmf-dist/tex/latex/graphics/graphicx.sty
INPUT /usr/share/texmf-dist/tex/latex/graphics/graphics.sty
INPUT /usr/share/texmf-dist/tex/latex/graphics/graphics.sty
INPUT /usr/share/texmf-dist/tex/latex/graphics/trig.sty
INPUT /usr/share/texmf-dist/tex/latex/graphics/trig.sty
INPUT /usr/share/texmf-dist/tex/latex/graphics-cfg/graphics.cfg
INPUT /usr/share/texmf-dist/tex/latex/graphics-cfg/graphics.cfg
INPUT /usr/share/texmf-dist/tex/latex/graphics-def/pdftex.def
INPUT /usr/share/texmf-dist/tex/latex/graphics-def/pdftex.def
INPUT /usr/share/texmf-dist/tex/context/base/mkii/supp-pdf.mkii
INPUT /usr/share/texmf-dist/tex/context/base/mkii/supp-pdf.mkii
INPUT /usr/share/texmf-dist/tex/latex/oberdiek/epstopdf-base.sty
INPUT /usr/share/texmf-dist/tex/latex/oberdiek/epstopdf-base.sty
INPUT /usr/share/texmf-dist/tex/generic/oberdiek/infwarerr.sty
INPUT /usr/share/texmf-dist/tex/generic/oberdiek/infwarerr.sty
INPUT /usr/share/texmf-dist/tex/latex/oberdiek/grfext.sty
INPUT /usr/share/texmf-dist/tex/latex/oberdiek/grfext.sty
INPUT /usr/share/texmf-dist/tex/generic/oberdiek/kvdefinekeys.sty
INPUT /usr/share/texmf-dist/tex/generic/oberdiek/kvdefinekeys.sty
INPUT /usr/share/texmf-dist/tex/generic/oberdiek/ltxcmds.sty
INPUT /usr/share/texmf-dist/tex/generic/oberdiek/ltxcmds.sty
INPUT /usr/share/texmf-dist/tex/latex/oberdiek/kvoptions.sty
INPUT /usr/share/texmf-dist/tex/latex/oberdiek/kvoptions.sty
INPUT /usr/share/texmf-dist/tex/generic/oberdiek/kvsetkeys.sty
INPUT /usr/share/texmf-dist/tex/generic/oberdiek/kvsetkeys.sty
INPUT /usr/share/texmf-dist/tex/generic/oberdiek/etexcmds.sty
INPUT /usr/share/texmf-dist/tex/generic/oberdiek/etexcmds.sty
INPUT /usr/share/texmf-dist/tex/generic/oberdiek/ifluatex.sty
INPUT /usr/share/texmf-dist/tex/generic/oberdiek/ifluatex.sty
INPUT /usr/share/texmf-dist/tex/generic/oberdiek/pdftexcmds.sty
INPUT /usr/share/texmf-dist/tex/generic/oberdiek/pdftexcmds.sty
INPUT /usr/share/texmf-dist/tex/generic/oberdiek/ifpdf.sty
INPUT /usr/share/texmf-dist/tex/generic/oberdiek/ifpdf.sty
INPUT /usr/share/texmf-dist/tex/latex/latexconfig/epstopdf-sys.cfg
INPUT /usr/share/texmf-dist/tex/latex/latexconfig/epstopdf-sys.cfg
INPUT /usr/share/texmf-dist/fonts/tfm/jknappen/ec/ecrm1728.tfm
INPUT /usr/share/texmf-dist/fonts/tfm/jknappen/ec/ecrm1200.tfm
INPUT /usr/share/texmf-dist/fonts/tfm/public/cm/cmr12.tfm
INPUT /usr/share/texmf-dist/fonts/tfm/public/cm/cmr8.tfm
INPUT /usr/share/texmf-dist/fonts/tfm/public/cm/cmr6.tfm
INPUT /usr/share/texmf-dist/fonts/tfm/public/cm/cmmi12.tfm
INPUT /usr/share/texmf-dist/fonts/tfm/public/cm/cmmi8.tfm
INPUT /usr/share/texmf-dist/fonts/tfm/public/cm/cmmi6.tfm
INPUT /usr/share/texmf-dist/fonts/tfm/public/cm/cmsy10.tfm
INPUT /usr/share/texmf-dist/fonts/tfm/public/cm/cmsy8.tfm
INPUT /usr/share/texmf-dist/fonts/tfm/public/cm/cmsy6.tfm
INPUT /usr/share/texmf-dist/fonts/tfm/public/cm/cmex10.tfm
INPUT /usr/share/texmf-dist/fonts/tfm/public/amsfonts/cmextra/cmex8.tfm
INPUT /usr/share/texmf-dist/fonts/tfm/public/amsfonts/cmextra/cmex7.tfm
INPUT /usr/share/texmf-dist/fonts/tfm/jknappen/ec/ecrm1440.tfm
INPUT /usr/share/texmf-dist/fonts/tfm/jknappen/ec/ecbx1440.tfm
INPUT /usr/share/texmf-dist/fonts/tfm/jknappen/ec/ecbx1200.tfm
INPUT /usr/share/texmf-dist/tex/latex/base/omscmr.fd
INPUT /usr/share/texmf-dist/tex/latex/base/omscmr.fd
INPUT /usr/share/texmf-dist/fonts/tfm/public/amsfonts/cmextra/cmex7.tfm
INPUT /usr/share/texmf-dist/fonts/tfm/public/amsfonts/cmextra/cmex7.tfm
OUTPUT /home/archflow/MEGA/zapisky/semestr_4/analyza_casovych_rad/prednasky.pdf
INPUT /var/lib/texmf/fonts/map/pdftex/updmap/pdftex.map
INPUT /usr/share/texmf-dist/fonts/tfm/jknappen/ec/ecti1000.tfm
INPUT /usr/share/texmf-dist/fonts/tfm/jknappen/ec/ecbx1000.tfm
INPUT /home/archflow/MEGA/zapisky/semestr_4/analyza_casovych_rad/prednasky.aux
INPUT /usr/share/texmf-dist/fonts/enc/dvips/cm-super/cm-super-t1.enc
INPUT /usr/share/texmf-dist/fonts/type1/public/amsfonts/cm/cmmi10.pfb
INPUT /usr/share/texmf-dist/fonts/type1/public/amsfonts/cm/cmmi7.pfb
INPUT /usr/share/texmf-dist/fonts/type1/public/amsfonts/cm/cmr10.pfb
INPUT /usr/share/texmf-dist/fonts/type1/public/amsfonts/cm/cmr7.pfb
INPUT /usr/share/texmf-dist/fonts/type1/public/amsfonts/cm/cmsy10.pfb
INPUT /usr/share/texmf-dist/fonts/type1/public/amsfonts/cm/cmsy7.pfb
INPUT /usr/share/texmf-dist/fonts/type1/public/cm-super/sfbx1000.pfb
INPUT /usr/share/texmf-dist/fonts/type1/public/cm-super/sfbx1200.pfb
INPUT /usr/share/texmf-dist/fonts/type1/public/cm-super/sfbx1440.pfb
INPUT /usr/share/texmf-dist/fonts/type1/public/cm-super/sfrm1000.pfb
INPUT /usr/share/texmf-dist/fonts/type1/public/cm-super/sfrm1200.pfb
INPUT /usr/share/texmf-dist/fonts/type1/public/cm-super/sfrm1728.pfb
INPUT /usr/share/texmf-dist/fonts/type1/public/cm-super/sfti1000.pfb
