\relax 
\catcode `"\active 
\catcode `-\active 
\babel@aux{czech}{}
\@writefile{toc}{\contentsline {section}{\numberline {1}\IeC {\'U}vod}{1}\protected@file@percent }
\@writefile{toc}{\contentsline {subsection}{\numberline {1.1}Z\IeC {\'a}po\IeC {\v c}et}{1}\protected@file@percent }
\@writefile{toc}{\contentsline {subsection}{\numberline {1.2}Zkou\IeC {\v s}ka}{1}\protected@file@percent }
\@writefile{toc}{\contentsline {section}{\numberline {2}Definice \IeC {\v c}asov\IeC {\'e} \IeC {\v r}ady}{1}\protected@file@percent }
\@writefile{toc}{\contentsline {section}{\numberline {3}C\IeC {\'\i }l anal\IeC {\'y}zy \IeC {\v c}asov\IeC {\'y}ch \IeC {\v r}ad}{1}\protected@file@percent }
\@writefile{toc}{\contentsline {section}{\numberline {4}\IeC {\v C}len\IeC {\v e}n\IeC {\'\i } \IeC {\v c}asov\IeC {\'y}ch \IeC {\v r}ad}{1}\protected@file@percent }
\@writefile{toc}{\contentsline {section}{\numberline {5}Srovnatelnost hodnot \IeC {\v c}asov\IeC {\'y}ch \IeC {\v r}ad}{2}\protected@file@percent }
\@writefile{toc}{\contentsline {section}{\numberline {6}Agregace hodnot \IeC {\v c}asov\IeC {\'y}ch \IeC {\v r}ad}{2}\protected@file@percent }
\@writefile{toc}{\contentsline {section}{\numberline {7}Deskriptivn\IeC {\'\i } statistiky \IeC {\v c}asov\IeC {\'y}ch \IeC {\v r}ad}{2}\protected@file@percent }
\@writefile{toc}{\contentsline {section}{\numberline {8}Element\IeC {\'a}rn\IeC {\'\i } charakteristiky \IeC {\v c}asov\IeC {\'y}ch \IeC {\v r}ad}{2}\protected@file@percent }
\@writefile{toc}{\contentsline {section}{\numberline {9}Grafick\IeC {\'a} anal\IeC {\'y}za \IeC {\v c}asov\IeC {\'y}ch \IeC {\v r}ad}{3}\protected@file@percent }
\@writefile{toc}{\contentsline {section}{\numberline {10}Z\IeC {\'\i }sk\IeC {\'a}v\IeC {\'a}n\IeC {\'\i } dat z webu}{3}\protected@file@percent }
\@writefile{toc}{\contentsline {section}{\numberline {11}Anal\IeC {\'y}za a n\IeC {\'a}hrada chyb\IeC {\v e}j\IeC {\'\i }c\IeC {\'\i }ch hodnot}{3}\protected@file@percent }
\@writefile{toc}{\contentsline {subsection}{\numberline {11.1}identifikace}{3}\protected@file@percent }
\@writefile{toc}{\contentsline {subsection}{\numberline {11.2}n\IeC {\'a}hrada chyb\IeC {\v e}j\IeC {\'\i }c\IeC {\'\i }ch hodnot}{3}\protected@file@percent }
\@writefile{toc}{\contentsline {section}{\numberline {12}Postupy p\IeC {\v r}ed anal\IeC {\'y}zou \IeC {\v c}asov\IeC {\'e} \IeC {\v r}ady}{3}\protected@file@percent }
\@writefile{toc}{\contentsline {subsection}{\numberline {12.1}Transformace \IeC {\v c}asov\IeC {\'e} \IeC {\v r}ady}{3}\protected@file@percent }
\@writefile{toc}{\contentsline {subsubsection}{\numberline {12.1.1}Element\IeC {\'a}rn\IeC {\'\i } transformace \IeC {\v c}asov\IeC {\'e} \IeC {\v r}ady}{3}\protected@file@percent }
\@writefile{toc}{\contentsline {subsubsection}{\numberline {12.1.2}stacion\IeC {\'a}rn\IeC {\'\i } \IeC {\v c}asov\IeC {\'a} \IeC {\v r}ada}{4}\protected@file@percent }
\@writefile{toc}{\contentsline {subsection}{\numberline {12.2}Modelov\IeC {\'a}n\IeC {\'\i } ekonomick\IeC {\'y}ch \IeC {\v c}asov\IeC {\'y}ch \IeC {\v r}ad}{4}\protected@file@percent }
\@writefile{toc}{\contentsline {subsection}{\numberline {12.3}Dekompozice \IeC {\v c}asov\IeC {\'e} \IeC {\v r}ady}{4}\protected@file@percent }
\@writefile{toc}{\contentsline {section}{\numberline {13}Popis dynamiky \IeC {\v c}asov\IeC {\'e} \IeC {\v r}ady}{5}\protected@file@percent }
