\relax 
\@writefile{toc}{\contentsline {section}{\numberline {1}Kanonick\IeC {\'y} tvar}{1}}
\@writefile{toc}{\contentsline {subsection}{\numberline {1.1}modelov\IeC {\'y} probl\IeC {\'e}m}{1}}
\@writefile{toc}{\contentsline {subsection}{\numberline {1.2}p\IeC {\v r}eveden\IeC {\'\i } PVO na rovnice}{1}}
\@writefile{toc}{\contentsline {section}{\numberline {2}test optimality}{2}}
