\relax 
\@writefile{toc}{\contentsline {section}{\numberline {1}\IeC {\'U}vod}{1}}
\@writefile{toc}{\contentsline {section}{\numberline {2}Kanonick\IeC {\'y} tvar}{1}}
\@writefile{toc}{\contentsline {section}{\numberline {3}test optimality}{2}}
