\relax 
\catcode `"\active 
\catcode `-\active 
\babel@aux{czech}{}
\@writefile{toc}{\contentsline {section}{\numberline {1}\IeC {\'U}vod}{1}}
\@writefile{toc}{\contentsline {section}{\numberline {2}Co je projekt}{1}}
\@writefile{toc}{\contentsline {subsection}{\numberline {2.1}F\IeC {\'a}ze projektu}{1}}
\@writefile{toc}{\contentsline {section}{\numberline {3}Inicializace - C\IeC {\'\i }l Projektu}{1}}
\@writefile{toc}{\contentsline {section}{\numberline {4}Projektov\IeC {\'e} \IeC {\v r}\IeC {\'\i }zen\IeC {\'\i } x \IeC {\v r}\IeC {\'\i }zen\IeC {\'\i } projektu}{2}}
\@writefile{toc}{\contentsline {section}{\numberline {5}\IeC {\'U}sp\IeC {\v e}\IeC {\v s}n\IeC {\'y} x ne\IeC {\'u}sp\IeC {\v e}\IeC {\v s}n\IeC {\'y} projekt}{2}}
\@writefile{toc}{\contentsline {section}{\numberline {6}Definice c\IeC {\'\i }le}{2}}
