\relax 
\catcode `"\active 
\catcode `-\active 
\select@language{czech}
\@writefile{toc}{\select@language{czech}}
\@writefile{lof}{\select@language{czech}}
\@writefile{lot}{\select@language{czech}}
\@writefile{toc}{\contentsline {section}{\numberline {1}\IeC {\'u}vod do v\IeC {\'y}uky p\IeC {\v r}edm\IeC {\v e}tu}{1}}
\@writefile{toc}{\contentsline {subsection}{\numberline {1.1}\IeC {\'u}vod}{1}}
\@writefile{toc}{\contentsline {subsubsection}{\numberline {1.1.1}Podm\IeC {\'\i }nky z\IeC {\'a}po\IeC {\v c}tu}{1}}
\@writefile{toc}{\contentsline {subsubsection}{\numberline {1.1.2}Zkou\IeC {\v s}ka}{1}}
\@writefile{toc}{\contentsline {subsubsection}{\numberline {1.1.3}Literatura}{1}}
\@writefile{toc}{\contentsline {section}{\numberline {2}\IeC {\'U}vod do opera\IeC {\v c}n\IeC {\'\i }ho v\IeC {\'y}zkumu}{1}}
\@writefile{toc}{\contentsline {subsection}{\numberline {2.1}Matematick\IeC {\'e} modelov\IeC {\'a}n\IeC {\'\i } - n\IeC {\'a}stroj OV}{1}}
\@writefile{toc}{\contentsline {subsection}{\numberline {2.2}Rysy opera\IeC {\v c}n\IeC {\'\i }ho v\IeC {\'y}zkumu}{2}}
\@writefile{toc}{\contentsline {subsection}{\numberline {2.3}Syst\IeC {\'e}m}{2}}
\@writefile{toc}{\contentsline {subsubsection}{\numberline {2.3.1}Ekonomick\IeC {\'y} model}{2}}
\@writefile{toc}{\contentsline {subsubsection}{\numberline {2.3.2}Matematick\IeC {\'y} model}{2}}
\@writefile{toc}{\contentsline {subsection}{\numberline {2.4}Klasifikace discipl\IeC {\'\i }n OV}{2}}
\@writefile{toc}{\contentsline {subsubsection}{\numberline {2.4.1}matematick\IeC {\'e} programov\IeC {\'a}n\IeC {\'\i }}{2}}
\@writefile{toc}{\contentsline {subsubsection}{\numberline {2.4.2}v\IeC {\'\i }cekriteri\IeC {\'a}ln\IeC {\'\i } rozhodov\IeC {\'a}n\IeC {\'\i }}{3}}
